{
  "S01E01": {
      "name": "S01E01 | Pilot",
      "genre": "Unknown",
      "thumb": "http://bigbangtheory.nikee.net/epizody/1serie.png",
      "url": "https://AONN.parrotdevelopers.repl.co/grab/?url=http://bigbangtheory.nikee.net/index.php?video=1"
  },
  "S01E02": {
      "name": "S01E02 | Hypotéza otrubové vlákniny",
      "genre": "Unknown",
      "thumb": "http://bigbangtheory.nikee.net/epizody/1serie.png",
      "url": "https://AONN.parrotdevelopers.repl.co/grab/?url=http://bigbangtheory.nikee.net/index.php?video=2"
  },
  "S01E03": {
      "name": "S01E03 | Korolár seržanta Sněhulky",
      "genre": "Unknown",
      "thumb": "http://bigbangtheory.nikee.net/epizody/1serie.png",
      "url": "https://AONN.parrotdevelopers.repl.co/grab/?url=http://bigbangtheory.nikee.net/index.php?video=3"
  },
  "S01E04": {
      "name": "S01E04 | Efekt světélkující rybky",
      "genre": "Unknown",
      "thumb": "http://bigbangtheory.nikee.net/epizody/1serie.png",
      "url": "https://AONN.parrotdevelopers.repl.co/grab/?url=http://bigbangtheory.nikee.net/index.php?video=4"
  },
  "S01E05": {
      "name": "S01E05 | Hamburgerový postulát",
      "genre": "Unknown",
      "thumb": "http://bigbangtheory.nikee.net/epizody/1serie.png",
      "url": "https://AONN.parrotdevelopers.repl.co/grab/?url=http://bigbangtheory.nikee.net/index.php?video=5"
  },
  "S01E06": {
      "name": "S01E06 | Paradigma pána prstenů",
      "genre": "Unknown",
      "thumb": "http://bigbangtheory.nikee.net/epizody/1serie.png",
      "url": "https://AONN.parrotdevelopers.repl.co/grab/?url=http://bigbangtheory.nikee.net/index.php?video=6"
  },
  "S01E07": {
      "name": "S01E07 | Knedlíčkový paradox",
      "genre": "Unknown",
      "thumb": "http://bigbangtheory.nikee.net/epizody/1serie.png",
      "url": "https://AONN.parrotdevelopers.repl.co/grab/?url=http://bigbangtheory.nikee.net/index.php?video=7"
  },
  "S01E08": {
      "name": "S01E08 | Koktejlový experiment",
      "genre": "Unknown",
      "thumb": "http://bigbangtheory.nikee.net/epizody/1serie.png",
      "url": "https://AONN.parrotdevelopers.repl.co/grab/?url=http://bigbangtheory.nikee.net/index.php?video=8"
  },
  "S01E09": {
      "name": "S01E09 | Cooper Hofstadterova polarizace",
      "genre": "Unknown",
      "thumb": "http://bigbangtheory.nikee.net/epizody/1serie.png",
      "url": "https://AONN.parrotdevelopers.repl.co/grab/?url=http://bigbangtheory.nikee.net/index.php?video=9"
  },
  "S01E10": {
      "name": "S01E10 | Loobenfeldův rozpad",
      "genre": "Unknown",
      "thumb": "http://bigbangtheory.nikee.net/epizody/1serie.png",
      "url": "https://AONN.parrotdevelopers.repl.co/grab/?url=http://bigbangtheory.nikee.net/index.php?video=10"
  },
  "S01E11": {
      "name": "S01E11 | Lívancová anomálie",
      "genre": "Unknown",
      "thumb": "http://bigbangtheory.nikee.net/epizody/1serie.png",
      "url": "https://AONN.parrotdevelopers.repl.co/grab/?url=http://bigbangtheory.nikee.net/index.php?video=11"
  },
  "S01E12": {
      "name": "S01E12 | Jerusalémská dualita",
      "genre": "Unknown",
      "thumb": "http://bigbangtheory.nikee.net/epizody/1serie.png",
      "url": "https://AONN.parrotdevelopers.repl.co/grab/?url=http://bigbangtheory.nikee.net/index.php?video=12"
  },
  "S01E13": {
      "name": "S01E13 | Batnádoba a chybný předpoklad",
      "genre": "Unknown",
      "thumb": "http://bigbangtheory.nikee.net/epizody/1serie.png",
      "url": "https://AONN.parrotdevelopers.repl.co/grab/?url=http://bigbangtheory.nikee.net/index.php?video=13"
  },
  "S01E14": {
      "name": "S01E14 | Zkáza mimoňoráje",
      "genre": "Unknown",
      "thumb": "http://bigbangtheory.nikee.net/epizody/1serie.png",
      "url": "https://AONN.parrotdevelopers.repl.co/grab/?url=http://bigbangtheory.nikee.net/index.php?video=14"
  },
  "S01E15": {
      "name": "S01E15 | Roštěnkové distribuční dilema",
      "genre": "Unknown",
      "thumb": "http://bigbangtheory.nikee.net/epizody/1serie.png",
      "url": "https://AONN.parrotdevelopers.repl.co/grab/?url=http://bigbangtheory.nikee.net/index.php?video=15"
  },
  "S01E16": {
      "name": "S01E16 | Reakce na arašídy",
      "genre": "Unknown",
      "thumb": "http://bigbangtheory.nikee.net/epizody/1serie.png",
      "url": "https://AONN.parrotdevelopers.repl.co/grab/?url=http://bigbangtheory.nikee.net/index.php?video=16"
  },
  "S01E17": {
      "name": "S01E17 | Mandarinkový faktor",
      "genre": "Unknown",
      "thumb": "http://bigbangtheory.nikee.net/epizody/1serie.png",
      "url": "https://AONN.parrotdevelopers.repl.co/grab/?url=http://bigbangtheory.nikee.net/index.php?video=17"
  },
  "S02E01": {
      "name": "S02E01 | Paradigma zkažené ryby",
      "genre": "Unknown",
      "thumb": "http://bigbangtheory.nikee.net/epizody/2serie.png",
      "url": "https://AONN.parrotdevelopers.repl.co/grab/?url=http://bigbangtheory.nikee.net/index.php?video=18"
  },
  "S02E02": {
      "name": "S02E02 | Topologie váčkovitého poklopce",
      "genre": "Unknown",
      "thumb": "http://bigbangtheory.nikee.net/epizody/2serie.png",
      "url": "https://AONN.parrotdevelopers.repl.co/grab/?url=http://bigbangtheory.nikee.net/index.php?video=19"
  },
  "S02E03": {
      "name": "S02E03 | Barbarská sublimace",
      "genre": "Unknown",
      "thumb": "http://bigbangtheory.nikee.net/epizody/2serie.png",
      "url": "https://AONN.parrotdevelopers.repl.co/grab/?url=http://bigbangtheory.nikee.net/index.php?video=20"
  },
  "S02E04": {
      "name": "S02E04 | Griffinova ekvivalence",
      "genre": "Unknown",
      "thumb": "http://bigbangtheory.nikee.net/epizody/2serie.png",
      "url": "https://AONN.parrotdevelopers.repl.co/grab/?url=http://bigbangtheory.nikee.net/index.php?video=21"
  },
  "S02E05": {
      "name": "S02E05 | Euklidovská alternativa",
      "genre": "Unknown",
      "thumb": "http://bigbangtheory.nikee.net/epizody/2serie.png",
      "url": "https://AONN.parrotdevelopers.repl.co/grab/?url=http://bigbangtheory.nikee.net/index.php?video=22"
  },
  "S02E06": {
      "name": "S02E06 | Cooper Nowitzki teorém",
      "genre": "Unknown",
      "thumb": "http://bigbangtheory.nikee.net/epizody/2serie.png",
      "url": "https://AONN.parrotdevelopers.repl.co/grab/?url=http://bigbangtheory.nikee.net/index.php?video=23"
  },
  "S02E07": {
      "name": "S02E07 | Polarizace kalhotkové všehochuti",
      "genre": "Unknown",
      "thumb": "http://bigbangtheory.nikee.net/epizody/2serie.png",
      "url": "https://AONN.parrotdevelopers.repl.co/grab/?url=http://bigbangtheory.nikee.net/index.php?video=24"
  },
  "S02E08": {
      "name": "S02E08 | Rozšíření o tapír Spock",
      "genre": "Unknown",
      "thumb": "http://bigbangtheory.nikee.net/epizody/2serie.png",
      "url": "https://AONN.parrotdevelopers.repl.co/grab/?url=http://bigbangtheory.nikee.net/index.php?video=25"
  },
  "S02E09": {
      "name": "S02E09 | Triangulace bilého chřestu",
      "genre": "Unknown",
      "thumb": "http://bigbangtheory.nikee.net/epizody/2serie.png",
      "url": "https://AONN.parrotdevelopers.repl.co/grab/?url=http://bigbangtheory.nikee.net/index.php?video=26"
  },
  "S02E10": {
      "name": "S02E10 | Záhada s paní Vartabedianovou",
      "genre": "Unknown",
      "thumb": "http://bigbangtheory.nikee.net/epizody/2serie.png",
      "url": "https://AONN.parrotdevelopers.repl.co/grab/?url=http://bigbangtheory.nikee.net/index.php?video=27"
  },
  "S02E11": {
      "name": "S02E11 | Hypotéza dárkových předmětů do koupele",
      "genre": "Unknown",
      "thumb": "http://bigbangtheory.nikee.net/epizody/2serie.png",
      "url": "https://AONN.parrotdevelopers.repl.co/grab/?url=http://bigbangtheory.nikee.net/index.php?video=28"
  },
  "S02E12": {
      "name": "S02E12 | Labilita robozabijáka",
      "genre": "Unknown",
      "thumb": "http://bigbangtheory.nikee.net/epizody/2serie.png",
      "url": "https://AONN.parrotdevelopers.repl.co/grab/?url=http://bigbangtheory.nikee.net/index.php?video=29"
  },
  "S02E13": {
      "name": "S02E13 | Algoritmus přátelství",
      "genre": "Unknown",
      "thumb": "http://bigbangtheory.nikee.net/epizody/2serie.png",
      "url": "https://AONN.parrotdevelopers.repl.co/grab/?url=http://bigbangtheory.nikee.net/index.php?video=30"
  },
  "S02E14": {
      "name": "S02E14 | Finanční alternativy",
      "genre": "Unknown",
      "thumb": "http://bigbangtheory.nikee.net/epizody/2serie.png",
      "url": "https://AONN.parrotdevelopers.repl.co/grab/?url=http://bigbangtheory.nikee.net/index.php?video=31"
  },
  "S02E15": {
      "name": "S02E15 | Mateřská kapacita",
      "genre": "Unknown",
      "thumb": "http://bigbangtheory.nikee.net/epizody/2serie.png",
      "url": "https://AONN.parrotdevelopers.repl.co/grab/?url=http://bigbangtheory.nikee.net/index.php?video=32"
  },
  "S02E16": {
      "name": "S02E16 | Polštářové stigma",
      "genre": "Unknown",
      "thumb": "http://bigbangtheory.nikee.net/epizody/2serie.png",
      "url": "https://AONN.parrotdevelopers.repl.co/grab/?url=http://bigbangtheory.nikee.net/index.php?video=33"
  },
  "S02E17": {
      "name": "S02E17 | Setkání s Terminátorem",
      "genre": "Unknown",
      "thumb": "http://bigbangtheory.nikee.net/epizody/2serie.png",
      "url": "https://AONN.parrotdevelopers.repl.co/grab/?url=http://bigbangtheory.nikee.net/index.php?video=34"
  },
  "S02E18": {
      "name": "S02E18 | Produktivní pracovní píseň",
      "genre": "Unknown",
      "thumb": "http://bigbangtheory.nikee.net/epizody/2serie.png",
      "url": "https://AONN.parrotdevelopers.repl.co/grab/?url=http://bigbangtheory.nikee.net/index.php?video=35"
  },
  "S02E19": {
      "name": "S02E19 | Polohy mrtvé šlapky",
      "genre": "Unknown",
      "thumb": "http://bigbangtheory.nikee.net/epizody/2serie.png",
      "url": "https://AONN.parrotdevelopers.repl.co/grab/?url=http://bigbangtheory.nikee.net/index.php?video=36"
  },
  "S02E20": {
      "name": "S02E20 | Hofstadterův izotop",
      "genre": "Unknown",
      "thumb": "http://bigbangtheory.nikee.net/epizody/2serie.png",
      "url": "https://AONN.parrotdevelopers.repl.co/grab/?url=http://bigbangtheory.nikee.net/index.php?video=37"
  },
  "S02E21": {
      "name": "S02E21 | Lasvegaský reset",
      "genre": "Unknown",
      "thumb": "http://bigbangtheory.nikee.net/epizody/2serie.png",
      "url": "https://AONN.parrotdevelopers.repl.co/grab/?url=http://bigbangtheory.nikee.net/index.php?video=38"
  },
  "S02E22": {
      "name": "S02E22 | Turbulence přísně tajných materiálů",
      "genre": "Unknown",
      "thumb": "http://bigbangtheory.nikee.net/epizody/2serie.png",
      "url": "https://AONN.parrotdevelopers.repl.co/grab/?url=http://bigbangtheory.nikee.net/index.php?video=39"
  },
  "S02E23": {
      "name": "S02E23 | Expedice na monopol",
      "genre": "Unknown",
      "thumb": "http://bigbangtheory.nikee.net/epizody/2serie.png",
      "url": "https://AONN.parrotdevelopers.repl.co/grab/?url=http://bigbangtheory.nikee.net/index.php?video=40"
  },
  "S03E01": {
      "name": "S03E01 | Fluktuace elektrického otvíráku na konzervy",
      "genre": "Unknown",
      "thumb": "http://bigbangtheory.nikee.net/epizody/3serie.png",
      "url": "https://AONN.parrotdevelopers.repl.co/grab/?url=http://bigbangtheory.nikee.net/index.php?video=41"
  },
  "S03E02": {
      "name": "S03E02 | Spor o cvrčka",
      "genre": "Unknown",
      "thumb": "http://bigbangtheory.nikee.net/epizody/3serie.png",
      "url": "https://AONN.parrotdevelopers.repl.co/grab/?url=http://bigbangtheory.nikee.net/index.php?video=42"
  },
  "S03E03": {
      "name": "S03E03 | Gothowitzova deviace",
      "genre": "Unknown",
      "thumb": "http://bigbangtheory.nikee.net/epizody/3serie.png",
      "url": "https://AONN.parrotdevelopers.repl.co/grab/?url=http://bigbangtheory.nikee.net/index.php?video=43"
  },
  "S03E04": {
      "name": "S03E04 | Řešení po pirátsku",
      "genre": "Unknown",
      "thumb": "http://bigbangtheory.nikee.net/epizody/3serie.png",
      "url": "https://AONN.parrotdevelopers.repl.co/grab/?url=http://bigbangtheory.nikee.net/index.php?video=44"
  },
  "S03E05": {
      "name": "S03E05 | Korolár hrůzostrašné polevy",
      "genre": "Unknown",
      "thumb": "http://bigbangtheory.nikee.net/epizody/3serie.png",
      "url": "https://AONN.parrotdevelopers.repl.co/grab/?url=http://bigbangtheory.nikee.net/index.php?video=45"
  },
  "S03E06": {
      "name": "S03E06 | Fotbalový klam",
      "genre": "Unknown",
      "thumb": "http://bigbangtheory.nikee.net/epizody/3serie.png",
      "url": "https://AONN.parrotdevelopers.repl.co/grab/?url=http://bigbangtheory.nikee.net/index.php?video=46"
  },
  "S03E07": {
      "name": "S03E07 | Zesílené vzpomínky",
      "genre": "Unknown",
      "thumb": "http://bigbangtheory.nikee.net/epizody/3serie.png",
      "url": "https://AONN.parrotdevelopers.repl.co/grab/?url=http://bigbangtheory.nikee.net/index.php?video=47"
  },
  "S03E08": {
      "name": "S03E08 | Deficit lepících kachen",
      "genre": "Unknown",
      "thumb": "http://bigbangtheory.nikee.net/epizody/3serie.png",
      "url": "https://AONN.parrotdevelopers.repl.co/grab/?url=http://bigbangtheory.nikee.net/index.php?video=48"
  },
  "S03E09": {
      "name": "S03E09 | Formulace odplaty",
      "genre": "Unknown",
      "thumb": "http://bigbangtheory.nikee.net/epizody/3serie.png",
      "url": "https://AONN.parrotdevelopers.repl.co/grab/?url=http://bigbangtheory.nikee.net/index.php?video=49"
  },
  "S03E10": {
      "name": "S03E10 | Experiment Gorila",
      "genre": "Unknown",
      "thumb": "http://bigbangtheory.nikee.net/epizody/3serie.png",
      "url": "https://AONN.parrotdevelopers.repl.co/grab/?url=http://bigbangtheory.nikee.net/index.php?video=50"
  },
  "S03E11": {
      "name": "S03E11 | Mateřská shoda",
      "genre": "Unknown",
      "thumb": "http://bigbangtheory.nikee.net/epizody/3serie.png",
      "url": "https://AONN.parrotdevelopers.repl.co/grab/?url=http://bigbangtheory.nikee.net/index.php?video=51"
  },
  "S03E12": {
      "name": "S03E12 | Okultní klamy",
      "genre": "Unknown",
      "thumb": "http://bigbangtheory.nikee.net/epizody/3serie.png",
      "url": "https://AONN.parrotdevelopers.repl.co/grab/?url=http://bigbangtheory.nikee.net/index.php?video=52"
  },
  "S03E13": {
      "name": "S03E13 | Bozemská reakce",
      "genre": "Unknown",
      "thumb": "http://bigbangtheory.nikee.net/epizody/3serie.png",
      "url": "https://AONN.parrotdevelopers.repl.co/grab/?url=http://bigbangtheory.nikee.net/index.php?video=53"
  },
  "S03E14": {
      "name": "S03E14 | Einsteinova aproximace",
      "genre": "Unknown",
      "thumb": "http://bigbangtheory.nikee.net/epizody/3serie.png",
      "url": "https://AONN.parrotdevelopers.repl.co/grab/?url=http://bigbangtheory.nikee.net/index.php?video=54"
  },
  "S03E15": {
      "name": "S03E15 | Centrální urychlovač částic",
      "genre": "Unknown",
      "thumb": "http://bigbangtheory.nikee.net/epizody/3serie.png",
      "url": "https://AONN.parrotdevelopers.repl.co/grab/?url=http://bigbangtheory.nikee.net/index.php?video=55"
  },
  "S03E16": {
      "name": "S03E16 | Kauza Excelsior",
      "genre": "Unknown",
      "thumb": "http://bigbangtheory.nikee.net/epizody/3serie.png",
      "url": "https://AONN.parrotdevelopers.repl.co/grab/?url=http://bigbangtheory.nikee.net/index.php?video=56"
  },
  "S03E17": {
      "name": "S03E17 | Porcování miláška",
      "genre": "Unknown",
      "thumb": "http://bigbangtheory.nikee.net/epizody/3serie.png",
      "url": "https://AONN.parrotdevelopers.repl.co/grab/?url=http://bigbangtheory.nikee.net/index.php?video=57"
  },
  "S03E18": {
      "name": "S03E18 | Alternativní sundavání kalhot",
      "genre": "Unknown",
      "thumb": "http://bigbangtheory.nikee.net/epizody/3serie.png",
      "url": "https://AONN.parrotdevelopers.repl.co/grab/?url=http://bigbangtheory.nikee.net/index.php?video=58"
  },
  "S03E19": {
      "name": "S03E19 | Wheatonova repríza",
      "genre": "Unknown",
      "thumb": "http://bigbangtheory.nikee.net/epizody/3serie.png",
      "url": "https://AONN.parrotdevelopers.repl.co/grab/?url=http://bigbangtheory.nikee.net/index.php?video=59"
  },
  "S03E20": {
      "name": "S03E20 | Špagetový katalyzátor",
      "genre": "Unknown",
      "thumb": "http://bigbangtheory.nikee.net/epizody/3serie.png",
      "url": "https://AONN.parrotdevelopers.repl.co/grab/?url=http://bigbangtheory.nikee.net/index.php?video=60"
  },
  "S03E21": {
      "name": "S03E21 | Plimptonovská stimulace",
      "genre": "Unknown",
      "thumb": "http://bigbangtheory.nikee.net/epizody/3serie.png",
      "url": "https://AONN.parrotdevelopers.repl.co/grab/?url=http://bigbangtheory.nikee.net/index.php?video=61"
  },
  "S03E22": {
      "name": "S03E22 | Upotřebení schodiště",
      "genre": "Unknown",
      "thumb": "http://bigbangtheory.nikee.net/epizody/3serie.png",
      "url": "https://AONN.parrotdevelopers.repl.co/grab/?url=http://bigbangtheory.nikee.net/index.php?video=62"
  },
  "S03E23": {
      "name": "S03E23 | Lunární excitace",
      "genre": "Unknown",
      "thumb": "http://bigbangtheory.nikee.net/epizody/3serie.png",
      "url": "https://AONN.parrotdevelopers.repl.co/grab/?url=http://bigbangtheory.nikee.net/index.php?video=63"
  },
  "S04E01": {
      "name": "S04E01 | Robotická manipulace",
      "genre": "Unknown",
      "thumb": "http://bigbangtheory.nikee.net/epizody/4serie.png",
      "url": "https://AONN.parrotdevelopers.repl.co/grab/?url=http://bigbangtheory.nikee.net/index.php?video=64"
  },
  "S04E02": {
      "name": "S04E02 | Obohacení košťálovou zeleninou",
      "genre": "Unknown",
      "thumb": "http://bigbangtheory.nikee.net/epizody/4serie.png",
      "url": "https://AONN.parrotdevelopers.repl.co/grab/?url=http://bigbangtheory.nikee.net/index.php?video=65"
  },
  "S04E03": {
      "name": "S04E03 | Substituce domácím mazlíčkem",
      "genre": "Unknown",
      "thumb": "http://bigbangtheory.nikee.net/epizody/4serie.png",
      "url": "https://AONN.parrotdevelopers.repl.co/grab/?url=http://bigbangtheory.nikee.net/index.php?video=66"
  },
  "S04E04": {
      "name": "S04E04 | Kyber-sexuální deviace",
      "genre": "Unknown",
      "thumb": "http://bigbangtheory.nikee.net/epizody/4serie.png",
      "url": "https://AONN.parrotdevelopers.repl.co/grab/?url=http://bigbangtheory.nikee.net/index.php?video=67"
  },
  "S04E05": {
      "name": "S04E05 | Feromonový zápach zoufalství",
      "genre": "Unknown",
      "thumb": "http://bigbangtheory.nikee.net/epizody/4serie.png",
      "url": "https://AONN.parrotdevelopers.repl.co/grab/?url=http://bigbangtheory.nikee.net/index.php?video=68"
  },
  "S04E06": {
      "name": "S04E06 | Alibi z irské hospody",
      "genre": "Unknown",
      "thumb": "http://bigbangtheory.nikee.net/epizody/4serie.png",
      "url": "https://AONN.parrotdevelopers.repl.co/grab/?url=http://bigbangtheory.nikee.net/index.php?video=69"
  },
  "S04E07": {
      "name": "S04E07 | Nedostatečnost omluvy",
      "genre": "Unknown",
      "thumb": "http://bigbangtheory.nikee.net/epizody/4serie.png",
      "url": "https://AONN.parrotdevelopers.repl.co/grab/?url=http://bigbangtheory.nikee.net/index.php?video=70"
  },
  "S04E08": {
      "name": "S04E08 | Jednadvacetisekundové vzrušení",
      "genre": "Unknown",
      "thumb": "http://bigbangtheory.nikee.net/epizody/4serie.png",
      "url": "https://AONN.parrotdevelopers.repl.co/grab/?url=http://bigbangtheory.nikee.net/index.php?video=71"
  },
  "S04E09": {
      "name": "S04E09 | Komplikovanost vztahů",
      "genre": "Unknown",
      "thumb": "http://bigbangtheory.nikee.net/epizody/4serie.png",
      "url": "https://AONN.parrotdevelopers.repl.co/grab/?url=http://bigbangtheory.nikee.net/index.php?video=72"
  },
  "S04E10": {
      "name": "S04E10 | Hypotéza o cizím parazitovi",
      "genre": "Unknown",
      "thumb": "http://bigbangtheory.nikee.net/epizody/4serie.png",
      "url": "https://AONN.parrotdevelopers.repl.co/grab/?url=http://bigbangtheory.nikee.net/index.php?video=73"
  },
  "S04E11": {
      "name": "S04E11 | Rekombinace Ligy spravedlnosti",
      "genre": "Unknown",
      "thumb": "http://bigbangtheory.nikee.net/epizody/4serie.png",
      "url": "https://AONN.parrotdevelopers.repl.co/grab/?url=http://bigbangtheory.nikee.net/index.php?video=74"
  },
  "S04E12": {
      "name": "S04E12 | Využití kalhot do autobusu",
      "genre": "Unknown",
      "thumb": "http://bigbangtheory.nikee.net/epizody/4serie.png",
      "url": "https://AONN.parrotdevelopers.repl.co/grab/?url=http://bigbangtheory.nikee.net/index.php?video=75"
  },
  "S04E13": {
      "name": "S04E13 | Obstrukce v autě lásky",
      "genre": "Unknown",
      "thumb": "http://bigbangtheory.nikee.net/epizody/4serie.png",
      "url": "https://AONN.parrotdevelopers.repl.co/grab/?url=http://bigbangtheory.nikee.net/index.php?video=76"
  },
  "S04E14": {
      "name": "S04E14 | Genialita uspávače hadů",
      "genre": "Unknown",
      "thumb": "http://bigbangtheory.nikee.net/epizody/4serie.png",
      "url": "https://AONN.parrotdevelopers.repl.co/grab/?url=http://bigbangtheory.nikee.net/index.php?video=77"
  },
  "S04E15": {
      "name": "S04E15 | Úterý smažených nočků",
      "genre": "Unknown",
      "thumb": "http://bigbangtheory.nikee.net/epizody/4serie.png",
      "url": "https://AONN.parrotdevelopers.repl.co/grab/?url=http://bigbangtheory.nikee.net/index.php?video=78"
  },
  "S04E16": {
      "name": "S04E16 | Jak je duležité míti Sheldona",
      "genre": "Unknown",
      "thumb": "http://bigbangtheory.nikee.net/epizody/4serie.png",
      "url": "https://AONN.parrotdevelopers.repl.co/grab/?url=http://bigbangtheory.nikee.net/index.php?video=79"
  },
  "S04E17": {
      "name": "S04E17 | Archimedův princip",
      "genre": "Unknown",
      "thumb": "http://bigbangtheory.nikee.net/epizody/4serie.png",
      "url": "https://AONN.parrotdevelopers.repl.co/grab/?url=http://bigbangtheory.nikee.net/index.php?video=80"
  },
  "S04E18": {
      "name": "S04E18 | Axiom karetního triku",
      "genre": "Unknown",
      "thumb": "http://bigbangtheory.nikee.net/epizody/4serie.png",
      "url": "https://AONN.parrotdevelopers.repl.co/grab/?url=http://bigbangtheory.nikee.net/index.php?video=81"
  },
  "S04E19": {
      "name": "S04E19 | Útok hackera Zarneckiho",
      "genre": "Unknown",
      "thumb": "http://bigbangtheory.nikee.net/epizody/4serie.png",
      "url": "https://AONN.parrotdevelopers.repl.co/grab/?url=http://bigbangtheory.nikee.net/index.php?video=82"
  },
  "S04E20": {
      "name": "S04E20 | Kontrolní drb o okrasné zahradě",
      "genre": "Unknown",
      "thumb": "http://bigbangtheory.nikee.net/epizody/4serie.png",
      "url": "https://AONN.parrotdevelopers.repl.co/grab/?url=http://bigbangtheory.nikee.net/index.php?video=83"
  },
  "S04E21": {
      "name": "S04E21 | Anulování Dohody spolubydlících",
      "genre": "Unknown",
      "thumb": "http://bigbangtheory.nikee.net/epizody/4serie.png",
      "url": "https://AONN.parrotdevelopers.repl.co/grab/?url=http://bigbangtheory.nikee.net/index.php?video=84"
  },
  "S04E22": {
      "name": "S04E22 | Operace Pakůň",
      "genre": "Unknown",
      "thumb": "http://bigbangtheory.nikee.net/epizody/4serie.png",
      "url": "https://AONN.parrotdevelopers.repl.co/grab/?url=http://bigbangtheory.nikee.net/index.php?video=85"
  },
  "S04E23": {
      "name": "S04E23 | Zásnubní reakce",
      "genre": "Unknown",
      "thumb": "http://bigbangtheory.nikee.net/epizody/4serie.png",
      "url": "https://AONN.parrotdevelopers.repl.co/grab/?url=http://bigbangtheory.nikee.net/index.php?video=86"
  },
  "S04E24": {
      "name": "S04E24 | Výměna spolubydlících",
      "genre": "Unknown",
      "thumb": "http://bigbangtheory.nikee.net/epizody/4serie.png",
      "url": "https://AONN.parrotdevelopers.repl.co/grab/?url=http://bigbangtheory.nikee.net/index.php?video=87"
  },
  "S05E01": {
      "name": "S05E01 | Analýza děvkovského reflexu",
      "genre": "Unknown",
      "thumb": "http://bigbangtheory.nikee.net/epizody/5serie.png",
      "url": "https://AONN.parrotdevelopers.repl.co/grab/?url=http://bigbangtheory.nikee.net/index.php?video=88"
  },
  "S05E02": {
      "name": "S05E02 | Hypotéza o zamoření škůdci",
      "genre": "Unknown",
      "thumb": "http://bigbangtheory.nikee.net/epizody/5serie.png",
      "url": "https://AONN.parrotdevelopers.repl.co/grab/?url=http://bigbangtheory.nikee.net/index.php?video=89"
  },
  "S05E03": {
      "name": "S05E03 | Misinterpretace namožených slabin",
      "genre": "Unknown",
      "thumb": "http://bigbangtheory.nikee.net/epizody/5serie.png",
      "url": "https://AONN.parrotdevelopers.repl.co/grab/?url=http://bigbangtheory.nikee.net/index.php?video=90"
  },
  "S05E04": {
      "name": "S05E04 | Relativita triviálních rozhodnutí",
      "genre": "Unknown",
      "thumb": "http://bigbangtheory.nikee.net/epizody/5serie.png",
      "url": "https://AONN.parrotdevelopers.repl.co/grab/?url=http://bigbangtheory.nikee.net/index.php?video=91"
  },
  "S05E05": {
      "name": "S05E05 | Variace na Schrödingerovu kočku",
      "genre": "Unknown",
      "thumb": "http://bigbangtheory.nikee.net/epizody/5serie.png",
      "url": "https://AONN.parrotdevelopers.repl.co/grab/?url=http://bigbangtheory.nikee.net/index.php?video=92"
  },
  "S05E06": {
      "name": "S05E06 | Symptomy běžného nachlazení",
      "genre": "Unknown",
      "thumb": "http://bigbangtheory.nikee.net/epizody/5serie.png",
      "url": "https://AONN.parrotdevelopers.repl.co/grab/?url=http://bigbangtheory.nikee.net/index.php?video=93"
  },
  "S05E07": {
      "name": "S05E07 | Fluktuace dobráctví",
      "genre": "Unknown",
      "thumb": "http://bigbangtheory.nikee.net/epizody/5serie.png",
      "url": "https://AONN.parrotdevelopers.repl.co/grab/?url=http://bigbangtheory.nikee.net/index.php?video=94"
  },
  "S05E08": {
      "name": "S05E08 | Selekce hlavní družičky",
      "genre": "Unknown",
      "thumb": "http://bigbangtheory.nikee.net/epizody/5serie.png",
      "url": "https://AONN.parrotdevelopers.repl.co/grab/?url=http://bigbangtheory.nikee.net/index.php?video=95"
  },
  "S05E09": {
      "name": "S05E09 | Rozptýlení ornitofobie",
      "genre": "Unknown",
      "thumb": "http://bigbangtheory.nikee.net/epizody/5serie.png",
      "url": "https://AONN.parrotdevelopers.repl.co/grab/?url=http://bigbangtheory.nikee.net/index.php?video=96"
  },
  "S05E10": {
      "name": "S05E10 | Rozšíření Válečníků z Ka'a",
      "genre": "Unknown",
      "thumb": "http://bigbangtheory.nikee.net/epizody/5serie.png",
      "url": "https://AONN.parrotdevelopers.repl.co/grab/?url=http://bigbangtheory.nikee.net/index.php?video=97"
  },
  "S05E11": {
      "name": "S05E11 | Speckermanova repríza",
      "genre": "Unknown",
      "thumb": "http://bigbangtheory.nikee.net/epizody/5serie.png",
      "url": "https://AONN.parrotdevelopers.repl.co/grab/?url=http://bigbangtheory.nikee.net/index.php?video=98"
  },
  "S05E12": {
      "name": "S05E12 | Finta se třpytivou cetkou",
      "genre": "Unknown",
      "thumb": "http://bigbangtheory.nikee.net/epizody/5serie.png",
      "url": "https://AONN.parrotdevelopers.repl.co/grab/?url=http://bigbangtheory.nikee.net/index.php?video=99"
  },
  "S05E13": {
      "name": "S05E13 | Hypotéza rekombinace",
      "genre": "Unknown",
      "thumb": "http://bigbangtheory.nikee.net/epizody/5serie.png",
      "url": "https://AONN.parrotdevelopers.repl.co/grab/?url=http://bigbangtheory.nikee.net/index.php?video=100"
  },
  "S05E14": {
      "name": "S05E14 | Zasvěcení do beta testování",
      "genre": "Unknown",
      "thumb": "http://bigbangtheory.nikee.net/epizody/5serie.png",
      "url": "https://AONN.parrotdevelopers.repl.co/grab/?url=http://bigbangtheory.nikee.net/index.php?video=101"
  },
  "S05E15": {
      "name": "S05E15 | Následky hypotetické katastrofy",
      "genre": "Unknown",
      "thumb": "http://bigbangtheory.nikee.net/epizody/5serie.png",
      "url": "https://AONN.parrotdevelopers.repl.co/grab/?url=http://bigbangtheory.nikee.net/index.php?video=102"
  },
  "S05E16": {
      "name": "S05E16 | Tip na dovolenou",
      "genre": "Unknown",
      "thumb": "http://bigbangtheory.nikee.net/epizody/5serie.png",
      "url": "https://AONN.parrotdevelopers.repl.co/grab/?url=http://bigbangtheory.nikee.net/index.php?video=103"
  },
  "S05E17": {
      "name": "S05E17 | Rothmanova degenerace",
      "genre": "Unknown",
      "thumb": "http://bigbangtheory.nikee.net/epizody/5serie.png",
      "url": "https://AONN.parrotdevelopers.repl.co/grab/?url=http://bigbangtheory.nikee.net/index.php?video=104"
  },
  "S05E18": {
      "name": "S05E18 | Sheldonova teorie chaosu",
      "genre": "Unknown",
      "thumb": "http://bigbangtheory.nikee.net/epizody/5serie.png",
      "url": "https://AONN.parrotdevelopers.repl.co/grab/?url=http://bigbangtheory.nikee.net/index.php?video=105"
  },
  "S05E19": {
      "name": "S05E19 | Víkendová vřava",
      "genre": "Unknown",
      "thumb": "http://bigbangtheory.nikee.net/epizody/5serie.png",
      "url": "https://AONN.parrotdevelopers.repl.co/grab/?url=http://bigbangtheory.nikee.net/index.php?video=106"
  },
  "S05E20": {
      "name": "S05E20 | Porucha transportéru",
      "genre": "Unknown",
      "thumb": "http://bigbangtheory.nikee.net/epizody/5serie.png",
      "url": "https://AONN.parrotdevelopers.repl.co/grab/?url=http://bigbangtheory.nikee.net/index.php?video=107"
  },
  "S05E21": {
      "name": "S05E21 | Hawkingova excitace",
      "genre": "Unknown",
      "thumb": "http://bigbangtheory.nikee.net/epizody/5serie.png",
      "url": "https://AONN.parrotdevelopers.repl.co/grab/?url=http://bigbangtheory.nikee.net/index.php?video=108"
  },
  "S05E22": {
      "name": "S05E22 | Rozlučkové fiasko",
      "genre": "Unknown",
      "thumb": "http://bigbangtheory.nikee.net/epizody/5serie.png",
      "url": "https://AONN.parrotdevelopers.repl.co/grab/?url=http://bigbangtheory.nikee.net/index.php?video=109"
  },
  "S05E23": {
      "name": "S05E23 | Akcelerace startu",
      "genre": "Unknown",
      "thumb": "http://bigbangtheory.nikee.net/epizody/5serie.png",
      "url": "https://AONN.parrotdevelopers.repl.co/grab/?url=http://bigbangtheory.nikee.net/index.php?video=110"
  },
  "S05E24": {
      "name": "S05E24 | Reflexe odpočtu",
      "genre": "Unknown",
      "thumb": "http://bigbangtheory.nikee.net/epizody/5serie.png",
      "url": "https://AONN.parrotdevelopers.repl.co/grab/?url=http://bigbangtheory.nikee.net/index.php?video=111"
  },
  "S06E01": {
      "name": "S06E01 | Variabilita večera ve dvou",
      "genre": "Unknown",
      "thumb": "http://bigbangtheory.nikee.net/epizody/6serie.png",
      "url": "https://AONN.parrotdevelopers.repl.co/grab/?url=http://bigbangtheory.nikee.net/index.php?video=112"
  },
  "S06E02": {
      "name": "S06E02 | Potenciální možnost rozchodu",
      "genre": "Unknown",
      "thumb": "http://bigbangtheory.nikee.net/epizody/6serie.png",
      "url": "https://AONN.parrotdevelopers.repl.co/grab/?url=http://bigbangtheory.nikee.net/index.php?video=113"
  },
  "S06E03": {
      "name": "S06E03 | Poznatek o Higgsově bosonu",
      "genre": "Unknown",
      "thumb": "http://bigbangtheory.nikee.net/epizody/6serie.png",
      "url": "https://AONN.parrotdevelopers.repl.co/grab/?url=http://bigbangtheory.nikee.net/index.php?video=114"
  },
  "S06E04": {
      "name": "S06E04 | Minimalizace dopadu návratu",
      "genre": "Unknown",
      "thumb": "http://bigbangtheory.nikee.net/epizody/6serie.png",
      "url": "https://AONN.parrotdevelopers.repl.co/grab/?url=http://bigbangtheory.nikee.net/index.php?video=115"
  },
  "S06E05": {
      "name": "S06E05 | Holografická stimulace",
      "genre": "Unknown",
      "thumb": "http://bigbangtheory.nikee.net/epizody/6serie.png",
      "url": "https://AONN.parrotdevelopers.repl.co/grab/?url=http://bigbangtheory.nikee.net/index.php?video=116"
  },
  "S06E06": {
      "name": "S06E06 | Výmaz pasáže",
      "genre": "Unknown",
      "thumb": "http://bigbangtheory.nikee.net/epizody/6serie.png",
      "url": "https://AONN.parrotdevelopers.repl.co/grab/?url=http://bigbangtheory.nikee.net/index.php?video=117"
  },
  "S06E07": {
      "name": "S06E07 | Párové dilema",
      "genre": "Unknown",
      "thumb": "http://bigbangtheory.nikee.net/epizody/6serie.png",
      "url": "https://AONN.parrotdevelopers.repl.co/grab/?url=http://bigbangtheory.nikee.net/index.php?video=118"
  },
  "S06E08": {
      "name": "S06E08 | Záhada čísla 43",
      "genre": "Unknown",
      "thumb": "http://bigbangtheory.nikee.net/epizody/6serie.png",
      "url": "https://AONN.parrotdevelopers.repl.co/grab/?url=http://bigbangtheory.nikee.net/index.php?video=119"
  },
  "S06E09": {
      "name": "S06E09 | Konflikt s parkovacím místem",
      "genre": "Unknown",
      "thumb": "http://bigbangtheory.nikee.net/epizody/6serie.png",
      "url": "https://AONN.parrotdevelopers.repl.co/grab/?url=http://bigbangtheory.nikee.net/index.php?video=120"
  },
  "S06E10": {
      "name": "S06E10 | Technika vykuchání ryby",
      "genre": "Unknown",
      "thumb": "http://bigbangtheory.nikee.net/epizody/6serie.png",
      "url": "https://AONN.parrotdevelopers.repl.co/grab/?url=http://bigbangtheory.nikee.net/index.php?video=121"
  },
  "S06E11": {
      "name": "S06E11 | Vánoční deziluze",
      "genre": "Unknown",
      "thumb": "http://bigbangtheory.nikee.net/epizody/6serie.png",
      "url": "https://AONN.parrotdevelopers.repl.co/grab/?url=http://bigbangtheory.nikee.net/index.php?video=122"
  },
  "S06E12": {
      "name": "S06E12 | Metafora o vaječném sendviči",
      "genre": "Unknown",
      "thumb": "http://bigbangtheory.nikee.net/epizody/6serie.png",
      "url": "https://AONN.parrotdevelopers.repl.co/grab/?url=http://bigbangtheory.nikee.net/index.php?video=123"
  },
  "S06E13": {
      "name": "S06E13 | Expedice do Bakersfieldu",
      "genre": "Unknown",
      "thumb": "http://bigbangtheory.nikee.net/epizody/6serie.png",
      "url": "https://AONN.parrotdevelopers.repl.co/grab/?url=http://bigbangtheory.nikee.net/index.php?video=124"
  },
  "S06E14": {
      "name": "S06E14 | Kripke-Cooperova inverze",
      "genre": "Unknown",
      "thumb": "http://bigbangtheory.nikee.net/epizody/6serie.png",
      "url": "https://AONN.parrotdevelopers.repl.co/grab/?url=http://bigbangtheory.nikee.net/index.php?video=125"
  },
  "S06E15": {
      "name": "S06E15 | Kritické dopady vyzrazení zápletky",
      "genre": "Unknown",
      "thumb": "http://bigbangtheory.nikee.net/epizody/6serie.png",
      "url": "https://AONN.parrotdevelopers.repl.co/grab/?url=http://bigbangtheory.nikee.net/index.php?video=126"
  },
  "S06E16": {
      "name": "S06E16 | Nesporný důkaz náklonnosti",
      "genre": "Unknown",
      "thumb": "http://bigbangtheory.nikee.net/epizody/6serie.png",
      "url": "https://AONN.parrotdevelopers.repl.co/grab/?url=http://bigbangtheory.nikee.net/index.php?video=127"
  },
  "S06E17": {
      "name": "S06E17 | Vytěsnění monstra",
      "genre": "Unknown",
      "thumb": "http://bigbangtheory.nikee.net/epizody/6serie.png",
      "url": "https://AONN.parrotdevelopers.repl.co/grab/?url=http://bigbangtheory.nikee.net/index.php?video=128"
  },
  "S06E18": {
      "name": "S06E18 | Implementace smluvního závazku",
      "genre": "Unknown",
      "thumb": "http://bigbangtheory.nikee.net/epizody/6serie.png",
      "url": "https://AONN.parrotdevelopers.repl.co/grab/?url=http://bigbangtheory.nikee.net/index.php?video=129"
  },
  "S06E19": {
      "name": "S06E19 | Přeorganizování kumbálu",
      "genre": "Unknown",
      "thumb": "http://bigbangtheory.nikee.net/epizody/6serie.png",
      "url": "https://AONN.parrotdevelopers.repl.co/grab/?url=http://bigbangtheory.nikee.net/index.php?video=130"
  },
  "S06E20": {
      "name": "S06E20 | Rozepře o definitivu",
      "genre": "Unknown",
      "thumb": "http://bigbangtheory.nikee.net/epizody/6serie.png",
      "url": "https://AONN.parrotdevelopers.repl.co/grab/?url=http://bigbangtheory.nikee.net/index.php?video=131"
  },
  "S06E21": {
      "name": "S06E21 | Alternativa zakončení",
      "genre": "Unknown",
      "thumb": "http://bigbangtheory.nikee.net/epizody/6serie.png",
      "url": "https://AONN.parrotdevelopers.repl.co/grab/?url=http://bigbangtheory.nikee.net/index.php?video=132"
  },
  "S06E22": {
      "name": "S06E22 | Experimenty s Protonem",
      "genre": "Unknown",
      "thumb": "http://bigbangtheory.nikee.net/epizody/6serie.png",
      "url": "https://AONN.parrotdevelopers.repl.co/grab/?url=http://bigbangtheory.nikee.net/index.php?video=133"
  },
  "S06E23": {
      "name": "S06E23 | Potenciál kouzla lásky",
      "genre": "Unknown",
      "thumb": "http://bigbangtheory.nikee.net/epizody/6serie.png",
      "url": "https://AONN.parrotdevelopers.repl.co/grab/?url=http://bigbangtheory.nikee.net/index.php?video=134"
  },
  "S06E24": {
      "name": "S06E24 | Reakce na bon voyage",
      "genre": "Unknown",
      "thumb": "http://bigbangtheory.nikee.net/epizody/6serie.png",
      "url": "https://AONN.parrotdevelopers.repl.co/grab/?url=http://bigbangtheory.nikee.net/index.php?video=135"
  },
  "S07E01": {
      "name": "S07E01 | Důsledek absence Hofstadtera",
      "genre": "Unknown",
      "thumb": "http://bigbangtheory.nikee.net/epizody/7serie.png",
      "url": "https://AONN.parrotdevelopers.repl.co/grab/?url=http://bigbangtheory.nikee.net/index.php?video=136"
  },
  "S07E02": {
      "name": "S07E02 | Verifikace podvodu",
      "genre": "Unknown",
      "thumb": "http://bigbangtheory.nikee.net/epizody/7serie.png",
      "url": "https://AONN.parrotdevelopers.repl.co/grab/?url=http://bigbangtheory.nikee.net/index.php?video=137"
  },
  "S07E03": {
      "name": "S07E03 | Egoismus lovce pokladů",
      "genre": "Unknown",
      "thumb": "http://bigbangtheory.nikee.net/epizody/7serie.png",
      "url": "https://AONN.parrotdevelopers.repl.co/grab/?url=http://bigbangtheory.nikee.net/index.php?video=138"
  },
  "S07E04": {
      "name": "S07E04 | Minimalizace Dobyvatelů",
      "genre": "Unknown",
      "thumb": "http://bigbangtheory.nikee.net/epizody/7serie.png",
      "url": "https://AONN.parrotdevelopers.repl.co/grab/?url=http://bigbangtheory.nikee.net/index.php?video=139"
  },
  "S07E05": {
      "name": "S07E05 | Proximita pracoviště",
      "genre": "Unknown",
      "thumb": "http://bigbangtheory.nikee.net/epizody/7serie.png",
      "url": "https://AONN.parrotdevelopers.repl.co/grab/?url=http://bigbangtheory.nikee.net/index.php?video=140"
  },
  "S07E06": {
      "name": "S07E06 | Ozvěny romance",
      "genre": "Unknown",
      "thumb": "http://bigbangtheory.nikee.net/epizody/7serie.png",
      "url": "https://AONN.parrotdevelopers.repl.co/grab/?url=http://bigbangtheory.nikee.net/index.php?video=141"
  },
  "S07E07": {
      "name": "S07E07 | Výměna Protonů",
      "genre": "Unknown",
      "thumb": "http://bigbangtheory.nikee.net/epizody/7serie.png",
      "url": "https://AONN.parrotdevelopers.repl.co/grab/?url=http://bigbangtheory.nikee.net/index.php?video=142"
  },
  "S07E08": {
      "name": "S07E08 | Simulace svědění mozku",
      "genre": "Unknown",
      "thumb": "http://bigbangtheory.nikee.net/epizody/7serie.png",
      "url": "https://AONN.parrotdevelopers.repl.co/grab/?url=http://bigbangtheory.nikee.net/index.php?video=143"
  },
  "S07E09": {
      "name": "S07E09 | Anulace na Den díkůvzdání",
      "genre": "Unknown",
      "thumb": "http://bigbangtheory.nikee.net/epizody/7serie.png",
      "url": "https://AONN.parrotdevelopers.repl.co/grab/?url=http://bigbangtheory.nikee.net/index.php?video=144"
  },
  "S07E10": {
      "name": "S07E10 | Vyvrácení existence objevu",
      "genre": "Unknown",
      "thumb": "http://bigbangtheory.nikee.net/epizody/7serie.png",
      "url": "https://AONN.parrotdevelopers.repl.co/grab/?url=http://bigbangtheory.nikee.net/index.php?video=145"
  },
  "S07E11": {
      "name": "S07E11 | Cooperova extrakce",
      "genre": "Unknown",
      "thumb": "http://bigbangtheory.nikee.net/epizody/7serie.png",
      "url": "https://AONN.parrotdevelopers.repl.co/grab/?url=http://bigbangtheory.nikee.net/index.php?video=146"
  },
  "S07E12": {
      "name": "S07E12 | Následek zaváhání",
      "genre": "Unknown",
      "thumb": "http://bigbangtheory.nikee.net/epizody/7serie.png",
      "url": "https://AONN.parrotdevelopers.repl.co/grab/?url=http://bigbangtheory.nikee.net/index.php?video=147"
  },
  "S07E13": {
      "name": "S07E13 | Rekalibrace zaměstnání",
      "genre": "Unknown",
      "thumb": "http://bigbangtheory.nikee.net/epizody/7serie.png",
      "url": "https://AONN.parrotdevelopers.repl.co/grab/?url=http://bigbangtheory.nikee.net/index.php?video=148"
  },
  "S07E14": {
      "name": "S07E14 | Nejasnost s konferencí",
      "genre": "Unknown",
      "thumb": "http://bigbangtheory.nikee.net/epizody/7serie.png",
      "url": "https://AONN.parrotdevelopers.repl.co/grab/?url=http://bigbangtheory.nikee.net/index.php?video=149"
  },
  "S07E15": {
      "name": "S07E15 | Manipulace lokomotivou",
      "genre": "Unknown",
      "thumb": "http://bigbangtheory.nikee.net/epizody/7serie.png",
      "url": "https://AONN.parrotdevelopers.repl.co/grab/?url=http://bigbangtheory.nikee.net/index.php?video=150"
  },
  "S07E16": {
      "name": "S07E16 | Manipulace jídelním stolem",
      "genre": "Unknown",
      "thumb": "http://bigbangtheory.nikee.net/epizody/7serie.png",
      "url": "https://AONN.parrotdevelopers.repl.co/grab/?url=http://bigbangtheory.nikee.net/index.php?video=151"
  },
  "S07E17": {
      "name": "S07E17 | Turbulence přátelství",
      "genre": "Unknown",
      "thumb": "http://bigbangtheory.nikee.net/epizody/7serie.png",
      "url": "https://AONN.parrotdevelopers.repl.co/grab/?url=http://bigbangtheory.nikee.net/index.php?video=152"
  },
  "S07E18": {
      "name": "S07E18 | Choulostivý moment překvapení",
      "genre": "Unknown",
      "thumb": "http://bigbangtheory.nikee.net/epizody/7serie.png",
      "url": "https://AONN.parrotdevelopers.repl.co/grab/?url=http://bigbangtheory.nikee.net/index.php?video=153"
  },
  "S07E19": {
      "name": "S07E19 | Rozhodovací martyrium",
      "genre": "Unknown",
      "thumb": "http://bigbangtheory.nikee.net/epizody/7serie.png",
      "url": "https://AONN.parrotdevelopers.repl.co/grab/?url=http://bigbangtheory.nikee.net/index.php?video=154"
  },
  "S07E20": {
      "name": "S07E20 | Tristní rozpad vztahu",
      "genre": "Unknown",
      "thumb": "http://bigbangtheory.nikee.net/epizody/7serie.png",
      "url": "https://AONN.parrotdevelopers.repl.co/grab/?url=http://bigbangtheory.nikee.net/index.php?video=155"
  },
  "S07E21": {
      "name": "S07E21 | Tradice nepředvídatelných čtvrtků",
      "genre": "Unknown",
      "thumb": "http://bigbangtheory.nikee.net/epizody/7serie.png",
      "url": "https://AONN.parrotdevelopers.repl.co/grab/?url=http://bigbangtheory.nikee.net/index.php?video=156"
  },
  "S07E22": {
      "name": "S07E22 | Rozjímání s Protonem",
      "genre": "Unknown",
      "thumb": "http://bigbangtheory.nikee.net/epizody/7serie.png",
      "url": "https://AONN.parrotdevelopers.repl.co/grab/?url=http://bigbangtheory.nikee.net/index.php?video=157"
  },
  "S07E23": {
      "name": "S07E23 | Gorilí exces",
      "genre": "Unknown",
      "thumb": "http://bigbangtheory.nikee.net/epizody/7serie.png",
      "url": "https://AONN.parrotdevelopers.repl.co/grab/?url=http://bigbangtheory.nikee.net/index.php?video=158"
  },
  "S07E24": {
      "name": "S07E24 | Porušení statu quo",
      "genre": "Unknown",
      "thumb": "http://bigbangtheory.nikee.net/epizody/7serie.png",
      "url": "https://AONN.parrotdevelopers.repl.co/grab/?url=http://bigbangtheory.nikee.net/index.php?video=159"
  },
  "S08E01": {
      "name": "S08E01 | Loupež ve spacím kupé",
      "genre": "Unknown",
      "thumb": "http://bigbangtheory.nikee.net/epizody/8serie.png",
      "url": "https://AONN.parrotdevelopers.repl.co/grab/?url=http://bigbangtheory.nikee.net/index.php?video=160"
  },
  "S08E02": {
      "name": "S08E02 | Naschvály odborného asistenta",
      "genre": "Unknown",
      "thumb": "http://bigbangtheory.nikee.net/epizody/8serie.png",
      "url": "https://AONN.parrotdevelopers.repl.co/grab/?url=http://bigbangtheory.nikee.net/index.php?video=161"
  },
  "S08E03": {
      "name": "S08E03 | Nedostatečnost baseballové průpravy",
      "genre": "Unknown",
      "thumb": "http://bigbangtheory.nikee.net/epizody/8serie.png",
      "url": "https://AONN.parrotdevelopers.repl.co/grab/?url=http://bigbangtheory.nikee.net/index.php?video=162"
  },
  "S08E04": {
      "name": "S08E04 | Fabulace o postelovém úletu",
      "genre": "Unknown",
      "thumb": "http://bigbangtheory.nikee.net/epizody/8serie.png",
      "url": "https://AONN.parrotdevelopers.repl.co/grab/?url=http://bigbangtheory.nikee.net/index.php?video=163"
  },
  "S08E05": {
      "name": "S08E05 | Mučivé metody soustředění",
      "genre": "Unknown",
      "thumb": "http://bigbangtheory.nikee.net/epizody/8serie.png",
      "url": "https://AONN.parrotdevelopers.repl.co/grab/?url=http://bigbangtheory.nikee.net/index.php?video=164"
  },
  "S08E06": {
      "name": "S08E06 | Simulace důlní expedice",
      "genre": "Unknown",
      "thumb": "http://bigbangtheory.nikee.net/epizody/8serie.png",
      "url": "https://AONN.parrotdevelopers.repl.co/grab/?url=http://bigbangtheory.nikee.net/index.php?video=165"
  },
  "S08E07": {
      "name": "S08E07 | Mylný výklad obchodní taktiky",
      "genre": "Unknown",
      "thumb": "http://bigbangtheory.nikee.net/epizody/8serie.png",
      "url": "https://AONN.parrotdevelopers.repl.co/grab/?url=http://bigbangtheory.nikee.net/index.php?video=166"
  },
  "S08E08": {
      "name": "S08E08 | Kompenzace maturitního plesu",
      "genre": "Unknown",
      "thumb": "http://bigbangtheory.nikee.net/epizody/8serie.png",
      "url": "https://AONN.parrotdevelopers.repl.co/grab/?url=http://bigbangtheory.nikee.net/index.php?video=167"
  },
  "S08E09": {
      "name": "S08E09 | Korekce nosní přepážky",
      "genre": "Unknown",
      "thumb": "http://bigbangtheory.nikee.net/epizody/8serie.png",
      "url": "https://AONN.parrotdevelopers.repl.co/grab/?url=http://bigbangtheory.nikee.net/index.php?video=168"
  },
  "S08E10": {
      "name": "S08E10 | Reflexe na základě šampaňského",
      "genre": "Unknown",
      "thumb": "http://bigbangtheory.nikee.net/epizody/8serie.png",
      "url": "https://AONN.parrotdevelopers.repl.co/grab/?url=http://bigbangtheory.nikee.net/index.php?video=169"
  },
  "S08E11": {
      "name": "S08E11 | Infiltrace sterilní místnosti",
      "genre": "Unknown",
      "thumb": "http://bigbangtheory.nikee.net/epizody/8serie.png",
      "url": "https://AONN.parrotdevelopers.repl.co/grab/?url=http://bigbangtheory.nikee.net/index.php?video=170"
  },
  "S08E12": {
      "name": "S08E12 | Dezintegrace vesmírné sondy",
      "genre": "Unknown",
      "thumb": "http://bigbangtheory.nikee.net/epizody/8serie.png",
      "url": "https://AONN.parrotdevelopers.repl.co/grab/?url=http://bigbangtheory.nikee.net/index.php?video=171"
  },
  "S08E13": {
      "name": "S08E13 | Optimalizace úzkosti",
      "genre": "Unknown",
      "thumb": "http://bigbangtheory.nikee.net/epizody/8serie.png",
      "url": "https://AONN.parrotdevelopers.repl.co/grab/?url=http://bigbangtheory.nikee.net/index.php?video=172"
  },
  "S08E14": {
      "name": "S08E14 | Kritika internetového anonyma",
      "genre": "Unknown",
      "thumb": "http://bigbangtheory.nikee.net/epizody/8serie.png",
      "url": "https://AONN.parrotdevelopers.repl.co/grab/?url=http://bigbangtheory.nikee.net/index.php?video=173"
  },
  "S08E15": {
      "name": "S08E15 | Renovace obchodu s komiksy",
      "genre": "Unknown",
      "thumb": "http://bigbangtheory.nikee.net/epizody/8serie.png",
      "url": "https://AONN.parrotdevelopers.repl.co/grab/?url=http://bigbangtheory.nikee.net/index.php?video=174"
  },
  "S08E16": {
      "name": "S08E16 | Akcelerace náklonnosti",
      "genre": "Unknown",
      "thumb": "http://bigbangtheory.nikee.net/epizody/8serie.png",
      "url": "https://AONN.parrotdevelopers.repl.co/grab/?url=http://bigbangtheory.nikee.net/index.php?video=175"
  },
  "S08E17": {
      "name": "S08E17 | Přihláška na kolonizaci",
      "genre": "Unknown",
      "thumb": "http://bigbangtheory.nikee.net/epizody/8serie.png",
      "url": "https://AONN.parrotdevelopers.repl.co/grab/?url=http://bigbangtheory.nikee.net/index.php?video=176"
  },
  "S08E18": {
      "name": "S08E18 | Křivda kvůli autorství",
      "genre": "Unknown",
      "thumb": "http://bigbangtheory.nikee.net/epizody/8serie.png",
      "url": "https://AONN.parrotdevelopers.repl.co/grab/?url=http://bigbangtheory.nikee.net/index.php?video=177"
  },
  "S08E19": {
      "name": "S08E19 | Vpád na Skywalkerův ranč",
      "genre": "Unknown",
      "thumb": "http://bigbangtheory.nikee.net/epizody/8serie.png",
      "url": "https://AONN.parrotdevelopers.repl.co/grab/?url=http://bigbangtheory.nikee.net/index.php?video=178"
  },
  "S08E20": {
      "name": "S08E20 | Realizace bunkru",
      "genre": "Unknown",
      "thumb": "http://bigbangtheory.nikee.net/epizody/8serie.png",
      "url": "https://AONN.parrotdevelopers.repl.co/grab/?url=http://bigbangtheory.nikee.net/index.php?video=179"
  },
  "S08E21": {
      "name": "S08E21 | Rozkol v komunikaci",
      "genre": "Unknown",
      "thumb": "http://bigbangtheory.nikee.net/epizody/8serie.png",
      "url": "https://AONN.parrotdevelopers.repl.co/grab/?url=http://bigbangtheory.nikee.net/index.php?video=180"
  },
  "S08E22": {
      "name": "S08E22 | Improvizace se slavnostním projevem",
      "genre": "Unknown",
      "thumb": "http://bigbangtheory.nikee.net/epizody/8serie.png",
      "url": "https://AONN.parrotdevelopers.repl.co/grab/?url=http://bigbangtheory.nikee.net/index.php?video=181"
  },
  "S08E23": {
      "name": "S08E23 | Koncepce mateřské přízně",
      "genre": "Unknown",
      "thumb": "http://bigbangtheory.nikee.net/epizody/8serie.png",
      "url": "https://AONN.parrotdevelopers.repl.co/grab/?url=http://bigbangtheory.nikee.net/index.php?video=182"
  },
  "S08E24": {
      "name": "S08E24 | Razantní přerod vztahu",
      "genre": "Unknown",
      "thumb": "http://bigbangtheory.nikee.net/epizody/8serie.png",
      "url": "https://AONN.parrotdevelopers.repl.co/grab/?url=http://bigbangtheory.nikee.net/index.php?video=183"
  },
  "S09E01": {
      "name": "S09E01 | Raketový nástup pomanželské krize",
      "genre": "Unknown",
      "thumb": "http://bigbangtheory.nikee.net/epizody/9serie.png",
      "url": "https://AONN.parrotdevelopers.repl.co/grab/?url=http://bigbangtheory.nikee.net/index.php?video=184"
  },
  "S09E02": {
      "name": "S09E02 | Oscilace kolem rozchodů",
      "genre": "Unknown",
      "thumb": "http://bigbangtheory.nikee.net/epizody/9serie.png",
      "url": "https://AONN.parrotdevelopers.repl.co/grab/?url=http://bigbangtheory.nikee.net/index.php?video=185"
  },
  "S09E03": {
      "name": "S09E03 | Selhání vědeckých principů",
      "genre": "Unknown",
      "thumb": "http://bigbangtheory.nikee.net/epizody/9serie.png",
      "url": "https://AONN.parrotdevelopers.repl.co/grab/?url=http://bigbangtheory.nikee.net/index.php?video=186"
  },
  "S09E04": {
      "name": "S09E04 | Aproximace roku 2003",
      "genre": "Unknown",
      "thumb": "http://bigbangtheory.nikee.net/epizody/9serie.png",
      "url": "https://AONN.parrotdevelopers.repl.co/grab/?url=http://bigbangtheory.nikee.net/index.php?video=187"
  },
  "S09E05": {
      "name": "S09E05 | Zvyšování tělesné kondice",
      "genre": "Unknown",
      "thumb": "http://bigbangtheory.nikee.net/epizody/9serie.png",
      "url": "https://AONN.parrotdevelopers.repl.co/grab/?url=http://bigbangtheory.nikee.net/index.php?video=188"
  },
  "S09E06": {
      "name": "S09E06 | Machinace s heliem",
      "genre": "Unknown",
      "thumb": "http://bigbangtheory.nikee.net/epizody/9serie.png",
      "url": "https://AONN.parrotdevelopers.repl.co/grab/?url=http://bigbangtheory.nikee.net/index.php?video=189"
  },
  "S09E07": {
      "name": "S09E07 | Dozvuky Spocka",
      "genre": "Unknown",
      "thumb": "http://bigbangtheory.nikee.net/epizody/9serie.png",
      "url": "https://AONN.parrotdevelopers.repl.co/grab/?url=http://bigbangtheory.nikee.net/index.php?video=190"
  },
  "S09E08": {
      "name": "S09E08 | Šmírování tajemného rande",
      "genre": "Unknown",
      "thumb": "http://bigbangtheory.nikee.net/epizody/9serie.png",
      "url": "https://AONN.parrotdevelopers.repl.co/grab/?url=http://bigbangtheory.nikee.net/index.php?video=191"
  },
  "S09E09": {
      "name": "S09E09 | Vystřídání partnerských rolí",
      "genre": "Unknown",
      "thumb": "http://bigbangtheory.nikee.net/epizody/9serie.png",
      "url": "https://AONN.parrotdevelopers.repl.co/grab/?url=http://bigbangtheory.nikee.net/index.php?video=192"
  },
  "S09E10": {
      "name": "S09E10 | Kompenzace zhrzenosti",
      "genre": "Unknown",
      "thumb": "http://bigbangtheory.nikee.net/epizody/9serie.png",
      "url": "https://AONN.parrotdevelopers.repl.co/grab/?url=http://bigbangtheory.nikee.net/index.php?video=193"
  },
  "S09E11": {
      "name": "S09E11 | Očekávání premiérové noci",
      "genre": "Unknown",
      "thumb": "http://bigbangtheory.nikee.net/epizody/9serie.png",
      "url": "https://AONN.parrotdevelopers.repl.co/grab/?url=http://bigbangtheory.nikee.net/index.php?video=194"
  },
  "S09E12": {
      "name": "S09E12 | Transformace obchodní schůzky",
      "genre": "Unknown",
      "thumb": "http://bigbangtheory.nikee.net/epizody/9serie.png",
      "url": "https://AONN.parrotdevelopers.repl.co/grab/?url=http://bigbangtheory.nikee.net/index.php?video=195"
  },
  "S09E13": {
      "name": "S09E13 | Svérázné projevy empatie",
      "genre": "Unknown",
      "thumb": "http://bigbangtheory.nikee.net/epizody/9serie.png",
      "url": "https://AONN.parrotdevelopers.repl.co/grab/?url=http://bigbangtheory.nikee.net/index.php?video=196"
  },
  "S09E14": {
      "name": "S09E14 | Přitransportování babči",
      "genre": "Unknown",
      "thumb": "http://bigbangtheory.nikee.net/epizody/9serie.png",
      "url": "https://AONN.parrotdevelopers.repl.co/grab/?url=http://bigbangtheory.nikee.net/index.php?video=197"
  },
  "S09E15": {
      "name": "S09E15 | Valentýnské extempore",
      "genre": "Unknown",
      "thumb": "http://bigbangtheory.nikee.net/epizody/9serie.png",
      "url": "https://AONN.parrotdevelopers.repl.co/grab/?url=http://bigbangtheory.nikee.net/index.php?video=198"
  },
  "S09E16": {
      "name": "S09E16 | Negativní reakce na pozitivní test",
      "genre": "Unknown",
      "thumb": "http://bigbangtheory.nikee.net/epizody/9serie.png",
      "url": "https://AONN.parrotdevelopers.repl.co/grab/?url=http://bigbangtheory.nikee.net/index.php?video=199"
  },
  "S09E17": {
      "name": "S09E17 | Experimentování s oslavou",
      "genre": "Unknown",
      "thumb": "http://bigbangtheory.nikee.net/epizody/9serie.png",
      "url": "https://AONN.parrotdevelopers.repl.co/grab/?url=http://bigbangtheory.nikee.net/index.php?video=200"
  },
  "S09E18": {
      "name": "S09E18 | Rozčarování z patentové smlouvy",
      "genre": "Unknown",
      "thumb": "http://bigbangtheory.nikee.net/epizody/9serie.png",
      "url": "https://AONN.parrotdevelopers.repl.co/grab/?url=http://bigbangtheory.nikee.net/index.php?video=201"
  },
  "S09E19": {
      "name": "S09E19 | Zmaření plánované pomsty",
      "genre": "Unknown",
      "thumb": "http://bigbangtheory.nikee.net/epizody/9serie.png",
      "url": "https://AONN.parrotdevelopers.repl.co/grab/?url=http://bigbangtheory.nikee.net/index.php?video=202"
  },
  "S09E20": {
      "name": "S09E20 | Paralely slzavých údolí",
      "genre": "Unknown",
      "thumb": "http://bigbangtheory.nikee.net/epizody/9serie.png",
      "url": "https://AONN.parrotdevelopers.repl.co/grab/?url=http://bigbangtheory.nikee.net/index.php?video=203"
  },
  "S09E21": {
      "name": "S09E21 | Úskalí sendviče na party",
      "genre": "Unknown",
      "thumb": "http://bigbangtheory.nikee.net/epizody/9serie.png",
      "url": "https://AONN.parrotdevelopers.repl.co/grab/?url=http://bigbangtheory.nikee.net/index.php?video=204"
  },
  "S09E22": {
      "name": "S09E22 | Nástrahy degustace",
      "genre": "Unknown",
      "thumb": "http://bigbangtheory.nikee.net/epizody/9serie.png",
      "url": "https://AONN.parrotdevelopers.repl.co/grab/?url=http://bigbangtheory.nikee.net/index.php?video=205"
  },
  "S09E23": {
      "name": "S09E23 | Protest proti předbíhání ve frontě",
      "genre": "Unknown",
      "thumb": "http://bigbangtheory.nikee.net/epizody/9serie.png",
      "url": "https://AONN.parrotdevelopers.repl.co/grab/?url=http://bigbangtheory.nikee.net/index.php?video=206"
  },
  "S09E24": {
      "name": "S09E24 | Scestný záchvat paranoie",
      "genre": "Unknown",
      "thumb": "http://bigbangtheory.nikee.net/epizody/9serie.png",
      "url": "https://AONN.parrotdevelopers.repl.co/grab/?url=http://bigbangtheory.nikee.net/index.php?video=207"
  },
  "S10E01": {
      "name": "S10E01 | Sonda do rodinných vazeb",
      "genre": "Unknown",
      "thumb": "http://bigbangtheory.nikee.net/epizody/10serie.png",
      "url": "https://AONN.parrotdevelopers.repl.co/grab/?url=http://bigbangtheory.nikee.net/index.php?video=208"
  },
  "S10E02": {
      "name": "S10E02 | Miniaturizace po vojensku",
      "genre": "Unknown",
      "thumb": "http://bigbangtheory.nikee.net/epizody/10serie.png",
      "url": "https://AONN.parrotdevelopers.repl.co/grab/?url=http://bigbangtheory.nikee.net/index.php?video=209"
  },
  "S10E03": {
      "name": "S10E03 | Pseudoproblém se závislostí",
      "genre": "Unknown",
      "thumb": "http://bigbangtheory.nikee.net/epizody/10serie.png",
      "url": "https://AONN.parrotdevelopers.repl.co/grab/?url=http://bigbangtheory.nikee.net/index.php?video=210"
  },
  "S10E04": {
      "name": "S10E04 | Experimentování se soužitím",
      "genre": "Unknown",
      "thumb": "http://bigbangtheory.nikee.net/epizody/10serie.png",
      "url": "https://AONN.parrotdevelopers.repl.co/grab/?url=http://bigbangtheory.nikee.net/index.php?video=211"
  },
  "S10E05": {
      "name": "S10E05 | Kontaminace vířivky",
      "genre": "Unknown",
      "thumb": "http://bigbangtheory.nikee.net/epizody/10serie.png",
      "url": "https://AONN.parrotdevelopers.repl.co/grab/?url=http://bigbangtheory.nikee.net/index.php?video=212"
  },
  "S10E06": {
      "name": "S10E06 | Fetální kopnutí",
      "genre": "Unknown",
      "thumb": "http://bigbangtheory.nikee.net/epizody/10serie.png",
      "url": "https://AONN.parrotdevelopers.repl.co/grab/?url=http://bigbangtheory.nikee.net/index.php?video=213"
  },
  "S10E07": {
      "name": "S10E07 | Aspekty pravdomluvnosti",
      "genre": "Unknown",
      "thumb": "http://bigbangtheory.nikee.net/epizody/10serie.png",
      "url": "https://AONN.parrotdevelopers.repl.co/grab/?url=http://bigbangtheory.nikee.net/index.php?video=214"
  },
  "S10E08": {
      "name": "S10E08 | Inkubace mozkových buněk",
      "genre": "Unknown",
      "thumb": "http://bigbangtheory.nikee.net/epizody/10serie.png",
      "url": "https://AONN.parrotdevelopers.repl.co/grab/?url=http://bigbangtheory.nikee.net/index.php?video=215"
  },
  "S10E09": {
      "name": "S10E09 | Zneuznaný génius",
      "genre": "Unknown",
      "thumb": "http://bigbangtheory.nikee.net/epizody/10serie.png",
      "url": "https://AONN.parrotdevelopers.repl.co/grab/?url=http://bigbangtheory.nikee.net/index.php?video=216"
  },
  "S10E10": {
      "name": "S10E10 | Šachování se společným majetkem",
      "genre": "Unknown",
      "thumb": "http://bigbangtheory.nikee.net/epizody/10serie.png",
      "url": "https://AONN.parrotdevelopers.repl.co/grab/?url=http://bigbangtheory.nikee.net/index.php?video=217"
  },
  "S10E11": {
      "name": "S10E11 | Synchronicita narozenin",
      "genre": "Unknown",
      "thumb": "http://bigbangtheory.nikee.net/epizody/10serie.png",
      "url": "https://AONN.parrotdevelopers.repl.co/grab/?url=http://bigbangtheory.nikee.net/index.php?video=218"
  },
  "S10E12": {
      "name": "S10E12 | Resumé vánočních svátků",
      "genre": "Unknown",
      "thumb": "http://bigbangtheory.nikee.net/epizody/10serie.png",
      "url": "https://AONN.parrotdevelopers.repl.co/grab/?url=http://bigbangtheory.nikee.net/index.php?video=219"
  },
  "S10E13": {
      "name": "S10E13 | Reorganizace vztahu",
      "genre": "Unknown",
      "thumb": "http://bigbangtheory.nikee.net/epizody/10serie.png",
      "url": "https://AONN.parrotdevelopers.repl.co/grab/?url=http://bigbangtheory.nikee.net/index.php?video=220"
  },
  "S10E14": {
      "name": "S10E14 | Prototyp emočního detektoru",
      "genre": "Unknown",
      "thumb": "http://bigbangtheory.nikee.net/epizody/10serie.png",
      "url": "https://AONN.parrotdevelopers.repl.co/grab/?url=http://bigbangtheory.nikee.net/index.php?video=221"
  },
  "S10E15": {
      "name": "S10E15 | Další manipulace lokomotivou",
      "genre": "Unknown",
      "thumb": "http://bigbangtheory.nikee.net/epizody/10serie.png",
      "url": "https://AONN.parrotdevelopers.repl.co/grab/?url=http://bigbangtheory.nikee.net/index.php?video=222"
  },
  "S10E16": {
      "name": "S10E16 | Sublimace kapesného",
      "genre": "Unknown",
      "thumb": "http://bigbangtheory.nikee.net/epizody/10serie.png",
      "url": "https://AONN.parrotdevelopers.repl.co/grab/?url=http://bigbangtheory.nikee.net/index.php?video=223"
  },
  "S10E17": {
      "name": "S10E17 | Šaráda s Comic-Conem",
      "genre": "Unknown",
      "thumb": "http://bigbangtheory.nikee.net/epizody/10serie.png",
      "url": "https://AONN.parrotdevelopers.repl.co/grab/?url=http://bigbangtheory.nikee.net/index.php?video=224"
  },
  "S10E18": {
      "name": "S10E18 | Metafora s únikovým východem",
      "genre": "Unknown",
      "thumb": "http://bigbangtheory.nikee.net/epizody/10serie.png",
      "url": "https://AONN.parrotdevelopers.repl.co/grab/?url=http://bigbangtheory.nikee.net/index.php?video=225"
  },
  "S10E19": {
      "name": "S10E19 | Fluktuace spolupráce",
      "genre": "Unknown",
      "thumb": "http://bigbangtheory.nikee.net/epizody/10serie.png",
      "url": "https://AONN.parrotdevelopers.repl.co/grab/?url=http://bigbangtheory.nikee.net/index.php?video=226"
  },
  "S10E20": {
      "name": "S10E20 | Bezprecedentní ztráta paměti",
      "genre": "Unknown",
      "thumb": "http://bigbangtheory.nikee.net/epizody/10serie.png",
      "url": "https://AONN.parrotdevelopers.repl.co/grab/?url=http://bigbangtheory.nikee.net/index.php?video=227"
  },
  "S10E21": {
      "name": "S10E21 | Frustrace z odloučení",
      "genre": "Unknown",
      "thumb": "http://bigbangtheory.nikee.net/epizody/10serie.png",
      "url": "https://AONN.parrotdevelopers.repl.co/grab/?url=http://bigbangtheory.nikee.net/index.php?video=228"
  },
  "S10E22": {
      "name": "S10E22 | Akceptace nezdolatelné výzvy",
      "genre": "Unknown",
      "thumb": "http://bigbangtheory.nikee.net/epizody/10serie.png",
      "url": "https://AONN.parrotdevelopers.repl.co/grab/?url=http://bigbangtheory.nikee.net/index.php?video=229"
  },
  "S10E23": {
      "name": "S10E23 | Konfiskace z přísně tajných důvodů",
      "genre": "Unknown",
      "thumb": "http://bigbangtheory.nikee.net/epizody/10serie.png",
      "url": "https://AONN.parrotdevelopers.repl.co/grab/?url=http://bigbangtheory.nikee.net/index.php?video=230"
  },
  "S10E24": {
      "name": "S10E24 | Rizika vztahů na dálku",
      "genre": "Unknown",
      "thumb": "http://bigbangtheory.nikee.net/epizody/10serie.png",
      "url": "https://AONN.parrotdevelopers.repl.co/grab/?url=http://bigbangtheory.nikee.net/index.php?video=231"
  },
  "S11E01": {
      "name": "S11E01 | Akceptace nabídky k sňatku",
      "genre": "Unknown",
      "thumb": "http://bigbangtheory.nikee.net/epizody/11serie.png",
      "url": "https://AONN.parrotdevelopers.repl.co/grab/?url=http://bigbangtheory.nikee.net/index.php?video=232"
  },
  "S11E02": {
      "name": "S11E02 | Nerozvážné interview",
      "genre": "Unknown",
      "thumb": "http://bigbangtheory.nikee.net/epizody/11serie.png",
      "url": "https://AONN.parrotdevelopers.repl.co/grab/?url=http://bigbangtheory.nikee.net/index.php?video=233"
  },
  "S11E03": {
      "name": "S11E03 | Starosti s termínem svatby",
      "genre": "Unknown",
      "thumb": "http://bigbangtheory.nikee.net/epizody/11serie.png",
      "url": "https://AONN.parrotdevelopers.repl.co/grab/?url=http://bigbangtheory.nikee.net/index.php?video=234"
  },
  "S11E04": {
      "name": "S11E04 | Účinné formy sbližování",
      "genre": "Unknown",
      "thumb": "http://bigbangtheory.nikee.net/epizody/11serie.png",
      "url": "https://AONN.parrotdevelopers.repl.co/grab/?url=http://bigbangtheory.nikee.net/index.php?video=235"
  },
  "S11E05": {
      "name": "S11E05 | Manuál k dospělým dětem",
      "genre": "Unknown",
      "thumb": "http://bigbangtheory.nikee.net/epizody/11serie.png",
      "url": "https://AONN.parrotdevelopers.repl.co/grab/?url=http://bigbangtheory.nikee.net/index.php?video=236"
  },
  "S11E06": {
      "name": "S11E06 | Regenerace Protonů",
      "genre": "Unknown",
      "thumb": "http://bigbangtheory.nikee.net/epizody/11serie.png",
      "url": "https://AONN.parrotdevelopers.repl.co/grab/?url=http://bigbangtheory.nikee.net/index.php?video=237"
  },
  "S11E07": {
      "name": "S11E07 | Reputace v sázce",
      "genre": "Unknown",
      "thumb": "http://bigbangtheory.nikee.net/epizody/11serie.png",
      "url": "https://AONN.parrotdevelopers.repl.co/grab/?url=http://bigbangtheory.nikee.net/index.php?video=238"
  },
  "S11E08": {
      "name": "S11E08 | Tesla kontra Edison",
      "genre": "Unknown",
      "thumb": "http://bigbangtheory.nikee.net/epizody/11serie.png",
      "url": "https://AONN.parrotdevelopers.repl.co/grab/?url=http://bigbangtheory.nikee.net/index.php?video=239"
  },
  "S11E09": {
      "name": "S11E09 | Bitcoinová retrospektiva",
      "genre": "Unknown",
      "thumb": "http://bigbangtheory.nikee.net/epizody/11serie.png",
      "url": "https://AONN.parrotdevelopers.repl.co/grab/?url=http://bigbangtheory.nikee.net/index.php?video=240"
  },
  "S11E10": {
      "name": "S11E10 | Destrukce sebedůvěry",
      "genre": "Unknown",
      "thumb": "http://bigbangtheory.nikee.net/epizody/11serie.png",
      "url": "https://AONN.parrotdevelopers.repl.co/grab/?url=http://bigbangtheory.nikee.net/index.php?video=241"
  },
  "S11E11": {
      "name": "S11E11 | Extrémně otravná oslava",
      "genre": "Unknown",
      "thumb": "http://bigbangtheory.nikee.net/epizody/11serie.png",
      "url": "https://AONN.parrotdevelopers.repl.co/grab/?url=http://bigbangtheory.nikee.net/index.php?video=242"
  },
  "S11E12": {
      "name": "S11E12 | Metriky svatebních rolí",
      "genre": "Unknown",
      "thumb": "http://bigbangtheory.nikee.net/epizody/11serie.png",
      "url": "https://AONN.parrotdevelopers.repl.co/grab/?url=http://bigbangtheory.nikee.net/index.php?video=243"
  },
  "S11E13": {
      "name": "S11E13 | Vibrace strun",
      "genre": "Unknown",
      "thumb": "http://bigbangtheory.nikee.net/epizody/11serie.png",
      "url": "https://AONN.parrotdevelopers.repl.co/grab/?url=http://bigbangtheory.nikee.net/index.php?video=244"
  },
  "S11E14": {
      "name": "S11E14 | Férové odloučení",
      "genre": "Unknown",
      "thumb": "http://bigbangtheory.nikee.net/epizody/11serie.png",
      "url": "https://AONN.parrotdevelopers.repl.co/grab/?url=http://bigbangtheory.nikee.net/index.php?video=245"
  },
  "S11E15": {
      "name": "S11E15 | Předloha detektivního románu",
      "genre": "Unknown",
      "thumb": "http://bigbangtheory.nikee.net/epizody/11serie.png",
      "url": "https://AONN.parrotdevelopers.repl.co/grab/?url=http://bigbangtheory.nikee.net/index.php?video=246"
  },
  "S11E16": {
      "name": "S11E16 | Úmorná kampaň",
      "genre": "Unknown",
      "thumb": "http://bigbangtheory.nikee.net/epizody/11serie.png",
      "url": "https://AONN.parrotdevelopers.repl.co/grab/?url=http://bigbangtheory.nikee.net/index.php?video=247"
  },
  "S11E17": {
      "name": "S11E17 | Přiřčení rezervace",
      "genre": "Unknown",
      "thumb": "http://bigbangtheory.nikee.net/epizody/11serie.png",
      "url": "https://AONN.parrotdevelopers.repl.co/grab/?url=http://bigbangtheory.nikee.net/index.php?video=248"
  },
  "S11E18": {
      "name": "S11E18 | Gatesova excitace",
      "genre": "Unknown",
      "thumb": "http://bigbangtheory.nikee.net/epizody/11serie.png",
      "url": "https://AONN.parrotdevelopers.repl.co/grab/?url=http://bigbangtheory.nikee.net/index.php?video=249"
  },
  "S11E19": {
      "name": "S11E19 | Disociace nájemníků",
      "genre": "Unknown",
      "thumb": "http://bigbangtheory.nikee.net/epizody/11serie.png",
      "url": "https://AONN.parrotdevelopers.repl.co/grab/?url=http://bigbangtheory.nikee.net/index.php?video=250"
  },
  "S11E20": {
      "name": "S11E20 | Potenciál izolace",
      "genre": "Unknown",
      "thumb": "http://bigbangtheory.nikee.net/epizody/11serie.png",
      "url": "https://AONN.parrotdevelopers.repl.co/grab/?url=http://bigbangtheory.nikee.net/index.php?video=251"
  },
  "S11E21": {
      "name": "S11E21 | Polarizace komety",
      "genre": "Unknown",
      "thumb": "http://bigbangtheory.nikee.net/epizody/11serie.png",
      "url": "https://AONN.parrotdevelopers.repl.co/grab/?url=http://bigbangtheory.nikee.net/index.php?video=252"
  },
  "S11E22": {
      "name": "S11E22 | Nedostatek finančních prostředků",
      "genre": "Unknown",
      "thumb": "http://bigbangtheory.nikee.net/epizody/11serie.png",
      "url": "https://AONN.parrotdevelopers.repl.co/grab/?url=http://bigbangtheory.nikee.net/index.php?video=253"
  },
  "S11E23": {
      "name": "S11E23 | Urovnání vyhrocených emocí",
      "genre": "Unknown",
      "thumb": "http://bigbangtheory.nikee.net/epizody/11serie.png",
      "url": "https://AONN.parrotdevelopers.repl.co/grab/?url=http://bigbangtheory.nikee.net/index.php?video=254"
  },
  "S11E24": {
      "name": "S11E24 | Asymetrie vázacího motýlka",
      "genre": "Unknown",
      "thumb": "http://bigbangtheory.nikee.net/epizody/11serie.png",
      "url": "https://AONN.parrotdevelopers.repl.co/grab/?url=http://bigbangtheory.nikee.net/index.php?video=255"
  },
  "S12E01": {
      "name": "S12E01 | Manželský kompromis",
      "genre": "Unknown",
      "thumb": "http://bigbangtheory.nikee.net/epizody/12serie.png",
      "url": "https://AONN.parrotdevelopers.repl.co/grab/?url=http://bigbangtheory.nikee.net/index.php?video=256"
  },
  "S12E02": {
      "name": "S12E02 | Mystifikace se svatebním darem",
      "genre": "Unknown",
      "thumb": "http://bigbangtheory.nikee.net/epizody/12serie.png",
      "url": "https://AONN.parrotdevelopers.repl.co/grab/?url=http://bigbangtheory.nikee.net/index.php?video=257"
  },
  "S12E03": {
      "name": "S12E03 | Kalkulace reprodukce",
      "genre": "Unknown",
      "thumb": "http://bigbangtheory.nikee.net/epizody/12serie.png",
      "url": "https://AONN.parrotdevelopers.repl.co/grab/?url=http://bigbangtheory.nikee.net/index.php?video=258"
  },
  "S12E04": {
      "name": "S12E04 | Turbulence s Tamem",
      "genre": "Unknown",
      "thumb": "http://bigbangtheory.nikee.net/epizody/12serie.png",
      "url": "https://AONN.parrotdevelopers.repl.co/grab/?url=http://bigbangtheory.nikee.net/index.php?video=259"
  },
  "S12E05": {
      "name": "S12E05 | Planetární kolize",
      "genre": "Unknown",
      "thumb": "http://bigbangtheory.nikee.net/epizody/12serie.png",
      "url": "https://AONN.parrotdevelopers.repl.co/grab/?url=http://bigbangtheory.nikee.net/index.php?video=260"
  },
  "S12E06": {
      "name": "S12E06 | Odveta za imitaci",
      "genre": "Unknown",
      "thumb": "http://bigbangtheory.nikee.net/epizody/12serie.png",
      "url": "https://AONN.parrotdevelopers.repl.co/grab/?url=http://bigbangtheory.nikee.net/index.php?video=261"
  },
  "S12E07": {
      "name": "S12E07 | Odklon finančních prostředků",
      "genre": "Unknown",
      "thumb": "http://bigbangtheory.nikee.net/epizody/12serie.png",
      "url": "https://AONN.parrotdevelopers.repl.co/grab/?url=http://bigbangtheory.nikee.net/index.php?video=262"
  },
  "S12E08": {
      "name": "S12E08 | Kulminace první noci",
      "genre": "Unknown",
      "thumb": "http://bigbangtheory.nikee.net/epizody/12serie.png",
      "url": "https://AONN.parrotdevelopers.repl.co/grab/?url=http://bigbangtheory.nikee.net/index.php?video=263"
  },
  "S12E09": {
      "name": "S12E09 | Frustrace z citace",
      "genre": "Unknown",
      "thumb": "http://bigbangtheory.nikee.net/epizody/12serie.png",
      "url": "https://AONN.parrotdevelopers.repl.co/grab/?url=http://bigbangtheory.nikee.net/index.php?video=264"
  },
  "S12E10": {
      "name": "S12E10 | VHS reminiscence",
      "genre": "Unknown",
      "thumb": "http://bigbangtheory.nikee.net/epizody/12serie.png",
      "url": "https://AONN.parrotdevelopers.repl.co/grab/?url=http://bigbangtheory.nikee.net/index.php?video=265"
  },
  "S12E11": {
      "name": "S12E11 | Rozhádaný paintball",
      "genre": "Unknown",
      "thumb": "http://bigbangtheory.nikee.net/epizody/12serie.png",
      "url": "https://AONN.parrotdevelopers.repl.co/grab/?url=http://bigbangtheory.nikee.net/index.php?video=266"
  },
  "S12E12": {
      "name": "S12E12 | Skandální návrh",
      "genre": "Unknown",
      "thumb": "http://bigbangtheory.nikee.net/epizody/12serie.png",
      "url": "https://AONN.parrotdevelopers.repl.co/grab/?url=http://bigbangtheory.nikee.net/index.php?video=267"
  },
  "S12E13": {
      "name": "S12E13 | Radikální stanovisko",
      "genre": "Unknown",
      "thumb": "http://bigbangtheory.nikee.net/epizody/12serie.png",
      "url": "https://AONN.parrotdevelopers.repl.co/grab/?url=http://bigbangtheory.nikee.net/index.php?video=268"
  },
  "S12E14": {
      "name": "S12E14 | Porcování meteoritu",
      "genre": "Unknown",
      "thumb": "http://bigbangtheory.nikee.net/epizody/12serie.png",
      "url": "https://AONN.parrotdevelopers.repl.co/grab/?url=http://bigbangtheory.nikee.net/index.php?video=269"
  },
  "S12E15": {
      "name": "S12E15 | Revokace darování",
      "genre": "Unknown",
      "thumb": "http://bigbangtheory.nikee.net/epizody/12serie.png",
      "url": "https://AONN.parrotdevelopers.repl.co/grab/?url=http://bigbangtheory.nikee.net/index.php?video=270"
  },
  "S12E16": {
      "name": "S12E16 | Hraní s celebritami",
      "genre": "Unknown",
      "thumb": "http://bigbangtheory.nikee.net/epizody/12serie.png",
      "url": "https://AONN.parrotdevelopers.repl.co/grab/?url=http://bigbangtheory.nikee.net/index.php?video=271"
  },
  "S12E17": {
      "name": "S12E17 | Nástrahy konkurence",
      "genre": "Unknown",
      "thumb": "http://bigbangtheory.nikee.net/epizody/12serie.png",
      "url": "https://AONN.parrotdevelopers.repl.co/grab/?url=http://bigbangtheory.nikee.net/index.php?video=272"
  },
  "S12E18": {
      "name": "S12E18 | Akumulace laureátů",
      "genre": "Unknown",
      "thumb": "http://bigbangtheory.nikee.net/epizody/12serie.png",
      "url": "https://AONN.parrotdevelopers.repl.co/grab/?url=http://bigbangtheory.nikee.net/index.php?video=273"
  },
  "S12E19": {
      "name": "S12E19 | Senzorická deprivace",
      "genre": "Unknown",
      "thumb": "http://bigbangtheory.nikee.net/epizody/12serie.png",
      "url": "https://AONN.parrotdevelopers.repl.co/grab/?url=http://bigbangtheory.nikee.net/index.php?video=274"
  },
  "S12E20": {
      "name": "S12E20 | Definice postačování",
      "genre": "Unknown",
      "thumb": "http://bigbangtheory.nikee.net/epizody/12serie.png",
      "url": "https://AONN.parrotdevelopers.repl.co/grab/?url=http://bigbangtheory.nikee.net/index.php?video=275"
  },
  "S12E21": {
      "name": "S12E21 | Plagiátorské schizma",
      "genre": "Unknown",
      "thumb": "http://bigbangtheory.nikee.net/epizody/12serie.png",
      "url": "https://AONN.parrotdevelopers.repl.co/grab/?url=http://bigbangtheory.nikee.net/index.php?video=276"
  },
  "S12E22": {
      "name": "S12E22 | Mateřská peripetie",
      "genre": "Unknown",
      "thumb": "http://bigbangtheory.nikee.net/epizody/12serie.png",
      "url": "https://AONN.parrotdevelopers.repl.co/grab/?url=http://bigbangtheory.nikee.net/index.php?video=277"
  },
  "S12E23": {
      "name": "S12E23 | Proměnlivá konstanta",
      "genre": "Unknown",
      "thumb": "http://bigbangtheory.nikee.net/epizody/12serie.png",
      "url": "https://AONN.parrotdevelopers.repl.co/grab/?url=http://bigbangtheory.nikee.net/index.php?video=278"
  },
  "S12E24": {
      "name": "S12E24 | Stockholmský syndrom",
      "genre": "Unknown",
      "thumb": "http://bigbangtheory.nikee.net/epizody/12serie.png",
      "url": "https://AONN.parrotdevelopers.repl.co/grab/?url=http://bigbangtheory.nikee.net/index.php?video=279"
  }
}
