{
  "S01E01": {
      "name": "S01E01 | Cizí nešťestí",
      "genre": "Unknown",
      "thumb": "http://bb.sifee.biz/epizody/1serie.png",
      "url": "https://AONN.parrotdevelopers.repl.co/grab/?url=http://bb.sifee.biz/index.php?video=1"
  },
  "S01E02": {
      "name": "S01E02 | Kočka v pytli...",
      "genre": "Unknown",
      "thumb": "http://bb.sifee.biz/epizody/1serie.png",
      "url": "https://AONN.parrotdevelopers.repl.co/grab/?url=http://bb.sifee.biz/index.php?video=15"
  },
  "S01E03": {
      "name": "S01E03 | ... a pytel je v řece",
      "genre": "Unknown",
      "thumb": "http://bb.sifee.biz/epizody/1serie.png",
      "url": "https://AONN.parrotdevelopers.repl.co/grab/?url=http://bb.sifee.biz/index.php?video=16"
  },
  "S01E04": {
      "name": "S01E04 | Muž s rakovinou",
      "genre": "Unknown",
      "thumb": "http://bb.sifee.biz/epizody/1serie.png",
      "url": "https://AONN.parrotdevelopers.repl.co/grab/?url=http://bb.sifee.biz/index.php?video=17"
  },
  "S01E05": {
      "name": "S01E05 | Šedá hmota",
      "genre": "Unknown",
      "thumb": "http://bb.sifee.biz/epizody/1serie.png",
      "url": "https://AONN.parrotdevelopers.repl.co/grab/?url=http://bb.sifee.biz/index.php?video=18"
  },
  "S01E06": {
      "name": "S01E06 | Prázdné ruce",
      "genre": "Unknown",
      "thumb": "http://bb.sifee.biz/epizody/1serie.png",
      "url": "https://AONN.parrotdevelopers.repl.co/grab/?url=http://bb.sifee.biz/index.php?video=19"
  },
  "S01E07": {
      "name": "S01E07 | Mělo by to být bez násilí",
      "genre": "Unknown",
      "thumb": "http://bb.sifee.biz/epizody/1serie.png",
      "url": "https://AONN.parrotdevelopers.repl.co/grab/?url=http://bb.sifee.biz/index.php?video=20"
  },
  "S02E01": {
      "name": "S02E01 | 737",
      "genre": "Unknown",
      "thumb": "http://bb.sifee.biz/epizody/2serie.png",
      "url": "https://AONN.parrotdevelopers.repl.co/grab/?url=http://bb.sifee.biz/index.php?video=21"
  },
  "S02E02": {
      "name": "S02E02 | Na rožni",
      "genre": "Unknown",
      "thumb": "http://bb.sifee.biz/epizody/2serie.png",
      "url": "https://AONN.parrotdevelopers.repl.co/grab/?url=http://bb.sifee.biz/index.php?video=22"
  },
  "S02E03": {
      "name": "S02E03 | Bodnutí mrtvé včely",
      "genre": "Unknown",
      "thumb": "http://bb.sifee.biz/epizody/2serie.png",
      "url": "https://AONN.parrotdevelopers.repl.co/grab/?url=http://bb.sifee.biz/index.php?video=23"
  },
  "S02E04": {
      "name": "S02E04 | Na dně",
      "genre": "Unknown",
      "thumb": "http://bb.sifee.biz/epizody/2serie.png",
      "url": "https://AONN.parrotdevelopers.repl.co/grab/?url=http://bb.sifee.biz/index.php?video=24"
  },
  "S02E05": {
      "name": "S02E05 | Ztratné",
      "genre": "Unknown",
      "thumb": "http://bb.sifee.biz/epizody/2serie.png",
      "url": "https://AONN.parrotdevelopers.repl.co/grab/?url=http://bb.sifee.biz/index.php?video=25"
  },
  "S02E06": {
      "name": "S02E06 | Schovávaná",
      "genre": "Unknown",
      "thumb": "http://bb.sifee.biz/epizody/2serie.png",
      "url": "https://AONN.parrotdevelopers.repl.co/grab/?url=http://bb.sifee.biz/index.php?video=26"
  },
  "S02E07": {
      "name": "S02E07 | Černá a modrá",
      "genre": "Unknown",
      "thumb": "http://bb.sifee.biz/epizody/2serie.png",
      "url": "https://AONN.parrotdevelopers.repl.co/grab/?url=http://bb.sifee.biz/index.php?video=27"
  },
  "S02E08": {
      "name": "S02E08 | Radši volejte Saula",
      "genre": "Unknown",
      "thumb": "http://bb.sifee.biz/epizody/2serie.png",
      "url": "https://AONN.parrotdevelopers.repl.co/grab/?url=http://bb.sifee.biz/index.php?video=28"
  },
  "S02E09": {
      "name": "S02E09 | 4 dny volna",
      "genre": "Unknown",
      "thumb": "http://bb.sifee.biz/epizody/2serie.png",
      "url": "https://AONN.parrotdevelopers.repl.co/grab/?url=http://bb.sifee.biz/index.php?video=29"
  },
  "S02E10": {
      "name": "S02E10 | Je to za námi",
      "genre": "Unknown",
      "thumb": "http://bb.sifee.biz/epizody/2serie.png",
      "url": "https://AONN.parrotdevelopers.repl.co/grab/?url=http://bb.sifee.biz/index.php?video=30"
  },
  "S02E11": {
      "name": "S02E11 | Mezi nebem a zemí",
      "genre": "Unknown",
      "thumb": "http://bb.sifee.biz/epizody/2serie.png",
      "url": "https://AONN.parrotdevelopers.repl.co/grab/?url=http://bb.sifee.biz/index.php?video=31"
  },
  "S02E12": {
      "name": "S02E12 | Znovuzrození",
      "genre": "Unknown",
      "thumb": "http://bb.sifee.biz/epizody/2serie.png",
      "url": "https://AONN.parrotdevelopers.repl.co/grab/?url=http://bb.sifee.biz/index.php?video=32"
  },
  "S02E13": {
      "name": "S02E13 | Albuquerque",
      "genre": "Unknown",
      "thumb": "http://bb.sifee.biz/epizody/2serie.png",
      "url": "https://AONN.parrotdevelopers.repl.co/grab/?url=http://bb.sifee.biz/index.php?video=33"
  },
  "S03E01": {
      "name": "S03E01 | Už ne",
      "genre": "Unknown",
      "thumb": "http://bb.sifee.biz/epizody/3serie.png",
      "url": "https://AONN.parrotdevelopers.repl.co/grab/?url=http://bb.sifee.biz/index.php?video=34"
  },
  "S03E02": {
      "name": "S03E02 | Kůň bezejména",
      "genre": "Unknown",
      "thumb": "http://bb.sifee.biz/epizody/3serie.png",
      "url": "https://AONN.parrotdevelopers.repl.co/grab/?url=http://bb.sifee.biz/index.php?video=35"
  },
  "S03E03": {
      "name": "S03E03 | S.S.T.",
      "genre": "Unknown",
      "thumb": "http://bb.sifee.biz/epizody/3serie.png",
      "url": "https://AONN.parrotdevelopers.repl.co/grab/?url=http://bb.sifee.biz/index.php?video=36"
  },
  "S03E04": {
      "name": "S03E04 | Zelené světlo",
      "genre": "Unknown",
      "thumb": "http://bb.sifee.biz/epizody/3serie.png",
      "url": "https://AONN.parrotdevelopers.repl.co/grab/?url=http://bb.sifee.biz/index.php?video=37"
  },
  "S03E05": {
      "name": "S03E05 | Už zase",
      "genre": "Unknown",
      "thumb": "http://bb.sifee.biz/epizody/3serie.png",
      "url": "https://AONN.parrotdevelopers.repl.co/grab/?url=http://bb.sifee.biz/index.php?video=38"
  },
  "S03E06": {
      "name": "S03E06 | Západ slunce",
      "genre": "Unknown",
      "thumb": "http://bb.sifee.biz/epizody/3serie.png",
      "url": "https://AONN.parrotdevelopers.repl.co/grab/?url=http://bb.sifee.biz/index.php?video=39"
  },
  "S03E07": {
      "name": "S03E07 | Osudová minuta",
      "genre": "Unknown",
      "thumb": "http://bb.sifee.biz/epizody/3serie.png",
      "url": "https://AONN.parrotdevelopers.repl.co/grab/?url=http://bb.sifee.biz/index.php?video=40"
  },
  "S03E08": {
      "name": "S03E08 | Vidím tě",
      "genre": "Unknown",
      "thumb": "http://bb.sifee.biz/epizody/3serie.png",
      "url": "https://AONN.parrotdevelopers.repl.co/grab/?url=http://bb.sifee.biz/index.php?video=41"
  },
  "S03E09": {
      "name": "S03E09 | Kafkárna",
      "genre": "Unknown",
      "thumb": "http://bb.sifee.biz/epizody/3serie.png",
      "url": "https://AONN.parrotdevelopers.repl.co/grab/?url=http://bb.sifee.biz/index.php?video=42"
  },
  "S03E10": {
      "name": "S03E10 | Moucha",
      "genre": "Unknown",
      "thumb": "http://bb.sifee.biz/epizody/3serie.png",
      "url": "https://AONN.parrotdevelopers.repl.co/grab/?url=http://bb.sifee.biz/index.php?video=43"
  },
  "S03E11": {
      "name": "S03E11 | Městečko Abiquiu",
      "genre": "Unknown",
      "thumb": "http://bb.sifee.biz/epizody/3serie.png",
      "url": "https://AONN.parrotdevelopers.repl.co/grab/?url=http://bb.sifee.biz/index.php?video=44"
  },
  "S03E12": {
      "name": "S03E12 | Polovičaté řešení",
      "genre": "Unknown",
      "thumb": "http://bb.sifee.biz/epizody/3serie.png",
      "url": "https://AONN.parrotdevelopers.repl.co/grab/?url=http://bb.sifee.biz/index.php?video=45"
  },
  "S03E13": {
      "name": "S03E13 | Konečné řešení",
      "genre": "Unknown",
      "thumb": "http://bb.sifee.biz/epizody/3serie.png",
      "url": "https://AONN.parrotdevelopers.repl.co/grab/?url=http://bb.sifee.biz/index.php?video=46"
  },
  "S04E01": {
      "name": "S04E01 | Řezák krabic",
      "genre": "Unknown",
      "thumb": "http://bb.sifee.biz/epizody/4serie.png",
      "url": "https://AONN.parrotdevelopers.repl.co/grab/?url=http://bb.sifee.biz/index.php?video=47"
  },
  "S04E02": {
      "name": "S04E02 | Krátká osmatřicítka",
      "genre": "Unknown",
      "thumb": "http://bb.sifee.biz/epizody/4serie.png",
      "url": "https://AONN.parrotdevelopers.repl.co/grab/?url=http://bb.sifee.biz/index.php?video=48"
  },
  "S04E03": {
      "name": "S04E03 | Otevřený dům",
      "genre": "Unknown",
      "thumb": "http://bb.sifee.biz/epizody/4serie.png",
      "url": "https://AONN.parrotdevelopers.repl.co/grab/?url=http://bb.sifee.biz/index.php?video=49"
  },
  "S04E04": {
      "name": "S04E04 | Klíčové body",
      "genre": "Unknown",
      "thumb": "http://bb.sifee.biz/epizody/4serie.png",
      "url": "https://AONN.parrotdevelopers.repl.co/grab/?url=http://bb.sifee.biz/index.php?video=50"
  },
  "S04E05": {
      "name": "S04E05 | Spolujezdec",
      "genre": "Unknown",
      "thumb": "http://bb.sifee.biz/epizody/4serie.png",
      "url": "https://AONN.parrotdevelopers.repl.co/grab/?url=http://bb.sifee.biz/index.php?video=51"
  },
  "S04E06": {
      "name": "S04E06 | Zahnán do kouta",
      "genre": "Unknown",
      "thumb": "http://bb.sifee.biz/epizody/4serie.png",
      "url": "https://AONN.parrotdevelopers.repl.co/grab/?url=http://bb.sifee.biz/index.php?video=52"
  },
  "S04E07": {
      "name": "S04E07 | Problémovej pes",
      "genre": "Unknown",
      "thumb": "http://bb.sifee.biz/epizody/4serie.png",
      "url": "https://AONN.parrotdevelopers.repl.co/grab/?url=http://bb.sifee.biz/index.php?video=53"
  },
  "S04E08": {
      "name": "S04E08 | Hermanos",
      "genre": "Unknown",
      "thumb": "http://bb.sifee.biz/epizody/4serie.png",
      "url": "https://AONN.parrotdevelopers.repl.co/grab/?url=http://bb.sifee.biz/index.php?video=54"
  },
  "S04E09": {
      "name": "S04E09 | Štěnice",
      "genre": "Unknown",
      "thumb": "http://bb.sifee.biz/epizody/4serie.png",
      "url": "https://AONN.parrotdevelopers.repl.co/grab/?url=http://bb.sifee.biz/index.php?video=55"
  },
  "S04E10": {
      "name": "S04E10 | Salud",
      "genre": "Unknown",
      "thumb": "http://bb.sifee.biz/epizody/4serie.png",
      "url": "https://AONN.parrotdevelopers.repl.co/grab/?url=http://bb.sifee.biz/index.php?video=56"
  },
  "S04E11": {
      "name": "S04E11 | Úložiště",
      "genre": "Unknown",
      "thumb": "http://bb.sifee.biz/epizody/4serie.png",
      "url": "https://AONN.parrotdevelopers.repl.co/grab/?url=http://bb.sifee.biz/index.php?video=57"
  },
  "S04E12": {
      "name": "S04E12 | Konec světa",
      "genre": "Unknown",
      "thumb": "http://bb.sifee.biz/epizody/4serie.png",
      "url": "https://AONN.parrotdevelopers.repl.co/grab/?url=http://bb.sifee.biz/index.php?video=58"
  },
  "S04E13": {
      "name": "S04E13 | Ztráta tváře",
      "genre": "Unknown",
      "thumb": "http://bb.sifee.biz/epizody/4serie.png",
      "url": "https://AONN.parrotdevelopers.repl.co/grab/?url=http://bb.sifee.biz/index.php?video=59"
  },
  "S05E01": {
      "name": "S05E01 | Svobodný život nebo smrt",
      "genre": "Unknown",
      "thumb": "http://bb.sifee.biz/epizody/5serie.png",
      "url": "https://AONN.parrotdevelopers.repl.co/grab/?url=http://bb.sifee.biz/index.php?video=60"
  },
  "S05E02": {
      "name": "S05E02 | Madrigal",
      "genre": "Unknown",
      "thumb": "http://bb.sifee.biz/epizody/5serie.png",
      "url": "https://AONN.parrotdevelopers.repl.co/grab/?url=http://bb.sifee.biz/index.php?video=61"
  },
  "S05E03": {
      "name": "S05E03 | Rizikový příplatek",
      "genre": "Unknown",
      "thumb": "http://bb.sifee.biz/epizody/5serie.png",
      "url": "https://AONN.parrotdevelopers.repl.co/grab/?url=http://bb.sifee.biz/index.php?video=62"
  },
  "S05E04": {
      "name": "S05E04 | Padesát jedna",
      "genre": "Unknown",
      "thumb": "http://bb.sifee.biz/epizody/5serie.png",
      "url": "https://AONN.parrotdevelopers.repl.co/grab/?url=http://bb.sifee.biz/index.php?video=63"
  },
  "S05E05": {
      "name": "S05E05 | Mrtvý náklad",
      "genre": "Unknown",
      "thumb": "http://bb.sifee.biz/epizody/5serie.png",
      "url": "https://AONN.parrotdevelopers.repl.co/grab/?url=http://bb.sifee.biz/index.php?video=64"
  },
  "S05E06": {
      "name": "S05E06 | Odkup podílu",
      "genre": "Unknown",
      "thumb": "http://bb.sifee.biz/epizody/5serie.png",
      "url": "https://AONN.parrotdevelopers.repl.co/grab/?url=http://bb.sifee.biz/index.php?video=65"
  },
  "S05E07": {
      "name": "S05E07 | Řekni mé jméno",
      "genre": "Unknown",
      "thumb": "http://bb.sifee.biz/epizody/5serie.png",
      "url": "https://AONN.parrotdevelopers.repl.co/grab/?url=http://bb.sifee.biz/index.php?video=66"
  },
  "S05E08": {
      "name": "S05E08 | Proplouvání nad tím vším",
      "genre": "Unknown",
      "thumb": "http://bb.sifee.biz/epizody/5serie.png",
      "url": "https://AONN.parrotdevelopers.repl.co/grab/?url=http://bb.sifee.biz/index.php?video=67"
  },
  "S05E09": {
      "name": "S05E09 | Krvavé peníze",
      "genre": "Unknown",
      "thumb": "http://bb.sifee.biz/epizody/5serie.png",
      "url": "https://AONN.parrotdevelopers.repl.co/grab/?url=http://bb.sifee.biz/index.php?video=68"
  },
  "S05E10": {
      "name": "S05E10 | Zahrabáno",
      "genre": "Unknown",
      "thumb": "http://bb.sifee.biz/epizody/5serie.png",
      "url": "https://AONN.parrotdevelopers.repl.co/grab/?url=http://bb.sifee.biz/index.php?video=69"
  },
  "S05E11": {
      "name": "S05E11 | Doznání",
      "genre": "Unknown",
      "thumb": "http://bb.sifee.biz/epizody/5serie.png",
      "url": "https://AONN.parrotdevelopers.repl.co/grab/?url=http://bb.sifee.biz/index.php?video=70"
  },
  "S05E12": {
      "name": "S05E12 | Vzteklý pes",
      "genre": "Unknown",
      "thumb": "http://bb.sifee.biz/epizody/5serie.png",
      "url": "https://AONN.parrotdevelopers.repl.co/grab/?url=http://bb.sifee.biz/index.php?video=71"
  },
  "S05E13": {
      "name": "S05E13 | To'hajiilee",
      "genre": "Unknown",
      "thumb": "http://bb.sifee.biz/epizody/5serie.png",
      "url": "https://AONN.parrotdevelopers.repl.co/grab/?url=http://bb.sifee.biz/index.php?video=72"
  },
  "S05E14": {
      "name": "S05E14 | Ozymandias",
      "genre": "Unknown",
      "thumb": "http://bb.sifee.biz/epizody/5serie.png",
      "url": "https://AONN.parrotdevelopers.repl.co/grab/?url=http://bb.sifee.biz/index.php?video=73"
  },
  "S05E15": {
      "name": "S05E15 | Žulový stát",
      "genre": "Unknown",
      "thumb": "http://bb.sifee.biz/epizody/5serie.png",
      "url": "https://AONN.parrotdevelopers.repl.co/grab/?url=http://bb.sifee.biz/index.php?video=74"
  },
  "S05E16": {
      "name": "S05E16 | Felina",
      "genre": "Unknown",
      "thumb": "http://bb.sifee.biz/epizody/5serie.png",
      "url": "https://AONN.parrotdevelopers.repl.co/grab/?url=http://bb.sifee.biz/index.php?video=75"
  }
}
