{
  "1": {
      "name": "5.6.7.",
      "genre": "Unknown",
      "thumb": "https://i.ibb.co/0DDWfVF/Addams.jpg",
      "url": "https://nahrajsoubor.cz/5e41fa55d420892b772d8f50e31368ce304313c285a44b3f3fa53f62cb304431"
  },
  "2": {
      "name": "8.9.10.",
      "genre": "Unknown",
      "thumb": "https://i.ibb.co/0DDWfVF/Addams.jpg",
      "url": "https://nahrajsoubor.cz/4edc30f7871f2911ca934f991d917006d4f1790be65dc5e9b3ea20b3d00dd606"
  },
  "3": {
      "name": "11.12.13.",
      "genre": "Unknown",
      "thumb": "https://i.ibb.co/0DDWfVF/Addams.jpg",
      "url": "https://nahrajsoubor.cz/4b968158fc9f8027955a4f1599d303afdd3db7de6a067aaeb711a8fbc58a0b32"
  },
  "4": {
      "name": "14.15.16.17.",
      "genre": "Unknown",
      "thumb": "https://i.ibb.co/0DDWfVF/Addams.jpg",
      "url": "https://nahrajsoubor.cz/93ca740e608e32c9bb2e507313be115c95689ae6f4245b8ee4286d3204e69541"
  },
  "5": {
      "name": "18.19.20.",
      "genre": "Unknown",
      "thumb": "https://i.ibb.co/0DDWfVF/Addams.jpg",
      "url": "https://nahrajsoubor.cz/4269575c776e6afd2f1ecac5e39df18bd94cea5708537b74b5564c4ec88b44f3"
  },
  "6": {
      "name": "21.22.23.",
      "genre": "Unknown",
      "thumb": "https://i.ibb.co/0DDWfVF/Addams.jpg",
      "url": "https://nahrajsoubor.cz/bdc4c28fe3af6f040a758e29480f195f6370b2769fcf3e10ccda0ef03ca0ea29"
  },
  "7": {
      "name": "24.25.26.",
      "genre": "Unknown",
      "thumb": "https://i.ibb.co/0DDWfVF/Addams.jpg",
      "url": "https://nahrajsoubor.cz/3d6a508ca1156b1bcdbd20f30bc238970b5fd5b4c469a339a2a6a8e86b001b76"
  },
  "8": {
      "name": "27.28.29.30.",
      "genre": "Unknown",
      "thumb": "https://i.ibb.co/0DDWfVF/Addams.jpg",
      "url": "https://nahrajsoubor.cz/be543cba68505886a1982f5f42f861cd13111e88fa790b73f33eb307f98a2168"
  },
  "9": {
      "name": "31.32.33.",
      "genre": "Unknown",
      "thumb": "https://i.ibb.co/0DDWfVF/Addams.jpg",
      "url": "https://nahrajsoubor.cz/b0df0118c217b35395cfab4d0e6bdbe7e9ce72c06456add8fa77a7a15ed8b657"
  },
  "10": {
      "name": "34.35.36.",
      "genre": "Unknown",
      "thumb": "https://i.ibb.co/0DDWfVF/Addams.jpg",
      "url": "https://nahrajsoubor.cz/dce46ad3640411c9cff647a3d10f7ef12bbb30507a6e71003bdecfbddd7d55c8"
  },
  "11": {
      "name": "37.38.39.",
      "genre": "Unknown",
      "thumb": "https://i.ibb.co/0DDWfVF/Addams.jpg",
      "url": "https://nahrajsoubor.cz/e6c477a04f510338511206ea8ca0c7a6eb0f0df58d67875120dd61038fe68726"
  }
}
