{
  "S01E01": {
      "name": "S01E01 | 01x01 - Pilot",
      "genre": "Unknown",
      "thumb": "http://rickamorty.sifee.biz/epizody/1serie.png",
      "url": "https://AONN.parrotdevelopers.repl.co/grab/?url=http://rickamorty.sifee.biz/index.php?video=1"
  },
  "S01E02": {
      "name": "S01E02 | 01x02 - Lawnmower Dog",
      "genre": "Unknown",
      "thumb": "http://rickamorty.sifee.biz/epizody/1serie.png",
      "url": "https://AONN.parrotdevelopers.repl.co/grab/?url=http://rickamorty.sifee.biz/index.php?video=2"
  },
  "S01E03": {
      "name": "S01E03 | 01x03 - Anatomy Park",
      "genre": "Unknown",
      "thumb": "http://rickamorty.sifee.biz/epizody/1serie.png",
      "url": "https://AONN.parrotdevelopers.repl.co/grab/?url=http://rickamorty.sifee.biz/index.php?video=3"
  },
  "S01E04": {
      "name": "S01E04 | 01x04 - M. Night Shaym-Aliens!",
      "genre": "Unknown",
      "thumb": "http://rickamorty.sifee.biz/epizody/1serie.png",
      "url": "https://AONN.parrotdevelopers.repl.co/grab/?url=http://rickamorty.sifee.biz/index.php?video=4"
  },
  "S01E05": {
      "name": "S01E05 | 01x05 - Meeseeks and Destroy",
      "genre": "Unknown",
      "thumb": "http://rickamorty.sifee.biz/epizody/1serie.png",
      "url": "https://AONN.parrotdevelopers.repl.co/grab/?url=http://rickamorty.sifee.biz/index.php?video=5"
  },
  "S01E06": {
      "name": "S01E06 | 01x06 - Rick Potion #9",
      "genre": "Unknown",
      "thumb": "http://rickamorty.sifee.biz/epizody/1serie.png",
      "url": "https://AONN.parrotdevelopers.repl.co/grab/?url=http://rickamorty.sifee.biz/index.php?video=6"
  },
  "S01E07": {
      "name": "S01E07 | 01x07 - Raising Gazorpazorp",
      "genre": "Unknown",
      "thumb": "http://rickamorty.sifee.biz/epizody/1serie.png",
      "url": "https://AONN.parrotdevelopers.repl.co/grab/?url=http://rickamorty.sifee.biz/index.php?video=7"
  },
  "S01E08": {
      "name": "S01E08 | 01x08 - Rixty Minutes",
      "genre": "Unknown",
      "thumb": "http://rickamorty.sifee.biz/epizody/1serie.png",
      "url": "https://AONN.parrotdevelopers.repl.co/grab/?url=http://rickamorty.sifee.biz/index.php?video=8"
  },
  "S01E09": {
      "name": "S01E09 | 01x09 - Something Ricked This Way Comes",
      "genre": "Unknown",
      "thumb": "http://rickamorty.sifee.biz/epizody/1serie.png",
      "url": "https://AONN.parrotdevelopers.repl.co/grab/?url=http://rickamorty.sifee.biz/index.php?video=9"
  },
  "S01E10": {
      "name": "S01E10 | 01x10 - Close Rick-counters of the Rick Kind",
      "genre": "Unknown",
      "thumb": "http://rickamorty.sifee.biz/epizody/1serie.png",
      "url": "https://AONN.parrotdevelopers.repl.co/grab/?url=http://rickamorty.sifee.biz/index.php?video=10"
  },
  "S01E11": {
      "name": "S01E11 | 01x11 - Ricksy Business",
      "genre": "Unknown",
      "thumb": "http://rickamorty.sifee.biz/epizody/1serie.png",
      "url": "https://AONN.parrotdevelopers.repl.co/grab/?url=http://rickamorty.sifee.biz/index.php?video=11"
  },
  "S02E01": {
      "name": "S02E01 | 02x01 - A Rickle in Time",
      "genre": "Unknown",
      "thumb": "http://rickamorty.sifee.biz/epizody/2serie.png",
      "url": "https://AONN.parrotdevelopers.repl.co/grab/?url=http://rickamorty.sifee.biz/index.php?video=12"
  },
  "S02E02": {
      "name": "S02E02 | 02x02 - Mortynight Run",
      "genre": "Unknown",
      "thumb": "http://rickamorty.sifee.biz/epizody/2serie.png",
      "url": "https://AONN.parrotdevelopers.repl.co/grab/?url=http://rickamorty.sifee.biz/index.php?video=13"
  },
  "S02E03": {
      "name": "S02E03 | 02x03 - Auto Erotic Assimilation",
      "genre": "Unknown",
      "thumb": "http://rickamorty.sifee.biz/epizody/2serie.png",
      "url": "https://AONN.parrotdevelopers.repl.co/grab/?url=http://rickamorty.sifee.biz/index.php?video=14"
  },
  "S02E04": {
      "name": "S02E04 | 02x04 - Total Rickall",
      "genre": "Unknown",
      "thumb": "http://rickamorty.sifee.biz/epizody/2serie.png",
      "url": "https://AONN.parrotdevelopers.repl.co/grab/?url=http://rickamorty.sifee.biz/index.php?video=15"
  },
  "S02E05": {
      "name": "S02E05 | 02x05 - Get Schwifty",
      "genre": "Unknown",
      "thumb": "http://rickamorty.sifee.biz/epizody/2serie.png",
      "url": "https://AONN.parrotdevelopers.repl.co/grab/?url=http://rickamorty.sifee.biz/index.php?video=16"
  },
  "S02E06": {
      "name": "S02E06 | 02x06 - The Ricks Must Be Crazy",
      "genre": "Unknown",
      "thumb": "http://rickamorty.sifee.biz/epizody/2serie.png",
      "url": "https://AONN.parrotdevelopers.repl.co/grab/?url=http://rickamorty.sifee.biz/index.php?video=17"
  },
  "S02E07": {
      "name": "S02E07 | 02x07 - Big Trouble in Little Sanchez",
      "genre": "Unknown",
      "thumb": "http://rickamorty.sifee.biz/epizody/2serie.png",
      "url": "https://AONN.parrotdevelopers.repl.co/grab/?url=http://rickamorty.sifee.biz/index.php?video=18"
  },
  "S02E08": {
      "name": "S02E08 | 02x08 - Interdimensional Cable 2: Tempting Fate",
      "genre": "Unknown",
      "thumb": "http://rickamorty.sifee.biz/epizody/2serie.png",
      "url": "https://AONN.parrotdevelopers.repl.co/grab/?url=http://rickamorty.sifee.biz/index.php?video=19"
  },
  "S02E09": {
      "name": "S02E09 | 02x09 - Look Who's Purging Now",
      "genre": "Unknown",
      "thumb": "http://rickamorty.sifee.biz/epizody/2serie.png",
      "url": "https://AONN.parrotdevelopers.repl.co/grab/?url=http://rickamorty.sifee.biz/index.php?video=20"
  },
  "S02E10": {
      "name": "S02E10 | 02x10 - The Wedding Squanchers",
      "genre": "Unknown",
      "thumb": "http://rickamorty.sifee.biz/epizody/2serie.png",
      "url": "https://AONN.parrotdevelopers.repl.co/grab/?url=http://rickamorty.sifee.biz/index.php?video=21"
  },
  "S03E01": {
      "name": "S03E01 | 03x01 - The Rickshank Redemption",
      "genre": "Unknown",
      "thumb": "http://rickamorty.sifee.biz/epizody/3serie.png",
      "url": "https://AONN.parrotdevelopers.repl.co/grab/?url=http://rickamorty.sifee.biz/index.php?video=22"
  },
  "S03E02": {
      "name": "S03E02 | 03x02 - Rickmancing the Stone",
      "genre": "Unknown",
      "thumb": "http://rickamorty.sifee.biz/epizody/3serie.png",
      "url": "https://AONN.parrotdevelopers.repl.co/grab/?url=http://rickamorty.sifee.biz/index.php?video=23"
  },
  "S03E03": {
      "name": "S03E03 | 03x03 - Pickle Rick",
      "genre": "Unknown",
      "thumb": "http://rickamorty.sifee.biz/epizody/3serie.png",
      "url": "https://AONN.parrotdevelopers.repl.co/grab/?url=http://rickamorty.sifee.biz/index.php?video=24"
  },
  "S03E04": {
      "name": "S03E04 | 03x04 - Vindicators 3. The Return of Worldender",
      "genre": "Unknown",
      "thumb": "http://rickamorty.sifee.biz/epizody/3serie.png",
      "url": "https://AONN.parrotdevelopers.repl.co/grab/?url=http://rickamorty.sifee.biz/index.php?video=25"
  },
  "S03E05": {
      "name": "S03E05 | 03x05 - The Whirly Dirly Conspiracy",
      "genre": "Unknown",
      "thumb": "http://rickamorty.sifee.biz/epizody/3serie.png",
      "url": "https://AONN.parrotdevelopers.repl.co/grab/?url=http://rickamorty.sifee.biz/index.php?video=26"
  },
  "S03E06": {
      "name": "S03E06 | 03x06 - Rest and Ricklaxation",
      "genre": "Unknown",
      "thumb": "http://rickamorty.sifee.biz/epizody/3serie.png",
      "url": "https://AONN.parrotdevelopers.repl.co/grab/?url=http://rickamorty.sifee.biz/index.php?video=27"
  },
  "S03E07": {
      "name": "S03E07 | 03x07 - The Ricklantis Mixup",
      "genre": "Unknown",
      "thumb": "http://rickamorty.sifee.biz/epizody/3serie.png",
      "url": "https://AONN.parrotdevelopers.repl.co/grab/?url=http://rickamorty.sifee.biz/index.php?video=28"
  },
  "S03E08": {
      "name": "S03E08 | 03x08 - Mortys Mind Blowers",
      "genre": "Unknown",
      "thumb": "http://rickamorty.sifee.biz/epizody/3serie.png",
      "url": "https://AONN.parrotdevelopers.repl.co/grab/?url=http://rickamorty.sifee.biz/index.php?video=29"
  },
  "S03E09": {
      "name": "S03E09 | 03x09 - The ABC's of Beth",
      "genre": "Unknown",
      "thumb": "http://rickamorty.sifee.biz/epizody/3serie.png",
      "url": "https://AONN.parrotdevelopers.repl.co/grab/?url=http://rickamorty.sifee.biz/index.php?video=30"
  },
  "S03E10": {
      "name": "S03E10 | 03x10 - The Rickchurian Mortydate",
      "genre": "Unknown",
      "thumb": "http://rickamorty.sifee.biz/epizody/3serie.png",
      "url": "https://AONN.parrotdevelopers.repl.co/grab/?url=http://rickamorty.sifee.biz/index.php?video=31"
  },
  "S04E01": {
      "name": "S04E01 | 04x01 - Edge of Tomorty Rick Die Rickpeat",
      "genre": "Unknown",
      "thumb": "http://rickamorty.sifee.biz/epizody/4serie.png",
      "url": "https://AONN.parrotdevelopers.repl.co/grab/?url=http://rickamorty.sifee.biz/index.php?video=32"
  },
  "S04E02": {
      "name": "S04E02 | 04x02 - The Old Man and the Seat",
      "genre": "Unknown",
      "thumb": "http://rickamorty.sifee.biz/epizody/4serie.png",
      "url": "https://AONN.parrotdevelopers.repl.co/grab/?url=http://rickamorty.sifee.biz/index.php?video=33"
  },
  "S04E03": {
      "name": "S04E03 | 04x03 - One Crew Over the Crewcoo's Morty",
      "genre": "Unknown",
      "thumb": "http://rickamorty.sifee.biz/epizody/4serie.png",
      "url": "https://AONN.parrotdevelopers.repl.co/grab/?url=http://rickamorty.sifee.biz/index.php?video=34"
  },
  "S04E04": {
      "name": "S04E04 | 04x04 - Claw and Hoarder Special Ricktim's Morty",
      "genre": "Unknown",
      "thumb": "http://rickamorty.sifee.biz/epizody/4serie.png",
      "url": "https://AONN.parrotdevelopers.repl.co/grab/?url=http://rickamorty.sifee.biz/index.php?video=35"
  },
  "S04E05": {
      "name": "S04E05 | 04x05 - Rattlestar Ricklactica",
      "genre": "Unknown",
      "thumb": "http://rickamorty.sifee.biz/epizody/4serie.png",
      "url": "https://AONN.parrotdevelopers.repl.co/grab/?url=http://rickamorty.sifee.biz/index.php?video=36"
  },
  "S04E06": {
      "name": "S04E06 | 04x06 - Never Ricking Morty",
      "genre": "Unknown",
      "thumb": "http://rickamorty.sifee.biz/epizody/4serie.png",
      "url": "https://AONN.parrotdevelopers.repl.co/grab/?url=http://rickamorty.sifee.biz/index.php?video=37"
  },
  "S04E07": {
      "name": "S04E07 | 04x07 - Promortyus",
      "genre": "Unknown",
      "thumb": "http://rickamorty.sifee.biz/epizody/4serie.png",
      "url": "https://AONN.parrotdevelopers.repl.co/grab/?url=http://rickamorty.sifee.biz/index.php?video=38"
  },
  "S04E08": {
      "name": "S04E08 | 04x08 - The Vat of Acid Episode",
      "genre": "Unknown",
      "thumb": "http://rickamorty.sifee.biz/epizody/4serie.png",
      "url": "https://AONN.parrotdevelopers.repl.co/grab/?url=http://rickamorty.sifee.biz/index.php?video=39"
  },
  "S04E09": {
      "name": "S04E09 | 04x09 - Childrick of Mort",
      "genre": "Unknown",
      "thumb": "http://rickamorty.sifee.biz/epizody/4serie.png",
      "url": "https://AONN.parrotdevelopers.repl.co/grab/?url=http://rickamorty.sifee.biz/index.php?video=40"
  },
  "S04E10": {
      "name": "S04E10 | 04x10 - Star Mort Rickturn of the Jerri",
      "genre": "Unknown",
      "thumb": "http://rickamorty.sifee.biz/epizody/4serie.png",
      "url": "https://AONN.parrotdevelopers.repl.co/grab/?url=http://rickamorty.sifee.biz/index.php?video=41"
  }
}
