{
  "1": {
      "name": "2",
      "genre": "Unknown",
      "thumb": "https://i.ibb.co/3Mw3spc/Tom-and-Jerry.jpg",
      "url": "https://nahrajsoubor.cz/f92fe3b526a1fff9434b274b0ad3dc6ba9a4f7762b57dd2c45fcb6069a879632"
  },
  "2": {
      "name": "3",
      "genre": "Unknown",
      "thumb": "https://i.ibb.co/3Mw3spc/Tom-and-Jerry.jpg",
      "url": "https://nahrajsoubor.cz/bfc3ea449b228705d839229a7cb83a28a7ecc0d58d079031de60191ed8eecde0"
  },
  "3": {
      "name": "4",
      "genre": "Unknown",
      "thumb": "https://i.ibb.co/3Mw3spc/Tom-and-Jerry.jpg",
      "url": "https://nahrajsoubor.cz/d3549e9a59f6042dfbb6cf61e993dd3f4bb7760df9f911a4f73fe9e561c9cfb4"
  },
  "4": {
      "name": "5",
      "genre": "Unknown",
      "thumb": "https://i.ibb.co/3Mw3spc/Tom-and-Jerry.jpg",
      "url": "https://nahrajsoubor.cz/fa64eb2920c72d297fb81d0d151f13cd307200c50a8c4887842ee2f538098d90"
  },
  "5": {
      "name": "6",
      "genre": "Unknown",
      "thumb": "https://i.ibb.co/3Mw3spc/Tom-and-Jerry.jpg",
      "url": "https://nahrajsoubor.cz/1a2026e051b4ed36070a82035ecf37f242cb02e01e3b739c897bb671d46a2a3b"
  },
  "6": {
      "name": "7",
      "genre": "Unknown",
      "thumb": "https://i.ibb.co/3Mw3spc/Tom-and-Jerry.jpg",
      "url": "https://nahrajsoubor.cz/e98a7e2900bdbad9f1ba72a2b71e6879bffe7f42e689fcb0cb6e1d6a92a3493d"
  },
  "7": {
      "name": "8",
      "genre": "Unknown",
      "thumb": "https://i.ibb.co/3Mw3spc/Tom-and-Jerry.jpg",
      "url": "https://nahrajsoubor.cz/485eae4ae538ae1e79872c46e873cf2e948a21c7dcbfefcd1ec183b77a1d6efa"
  },
  "8": {
      "name": "9",
      "genre": "Unknown",
      "thumb": "https://i.ibb.co/3Mw3spc/Tom-and-Jerry.jpg",
      "url": "https://nahrajsoubor.cz/83e27bf787deb81c94a9ae88c389478b122f28f300b1e9c35caa95e35b813f6a"
  },
  "9": {
      "name": "10",
      "genre": "Unknown",
      "thumb": "https://i.ibb.co/3Mw3spc/Tom-and-Jerry.jpg",
      "url": "https://nahrajsoubor.cz/013ad23a39016f68f6bb97b833535c97555402f62c715c955d381ba3878d49a8"
  },
  "10": {
      "name": "11",
      "genre": "Unknown",
      "thumb": "https://i.ibb.co/3Mw3spc/Tom-and-Jerry.jpg",
      "url": "https://nahrajsoubor.cz/8044036ae9ea8939e1373e19671d8771969a29ab3b40a3146cdb5db3b4851e32"
  },
  "11": {
      "name": "12",
      "genre": "Unknown",
      "thumb": "https://i.ibb.co/3Mw3spc/Tom-and-Jerry.jpg",
      "url": "https://nahrajsoubor.cz/e57a9db2090ee33fc7ba1fb062700288b074eded5b27dd7bea07b01b3680525b"
  },
  "12": {
      "name": "13",
      "genre": "Unknown",
      "thumb": "https://i.ibb.co/3Mw3spc/Tom-and-Jerry.jpg",
      "url": "https://nahrajsoubor.cz/896161ae8b10f58837e855f04a28b10746dad82ece25be1525889170398a6200"
  },
  "13": {
      "name": "14",
      "genre": "Unknown",
      "thumb": "https://i.ibb.co/3Mw3spc/Tom-and-Jerry.jpg",
      "url": "https://nahrajsoubor.cz/d12695eea350d9cf0fd7f8b243a4d416522935684e315a7754fc4588fe10b062"
  },
  "14": {
      "name": "15",
      "genre": "Unknown",
      "thumb": "https://i.ibb.co/3Mw3spc/Tom-and-Jerry.jpg",
      "url": "https://nahrajsoubor.cz/f139711a48f7565fb2499ae567b91d1f86ac4f6bd2c427b692f8e09b69346f84"
  },
  "15": {
      "name": "16",
      "genre": "Unknown",
      "thumb": "https://i.ibb.co/3Mw3spc/Tom-and-Jerry.jpg",
      "url": "https://nahrajsoubor.cz/b402f43261b559ab48adce456b73102373c16383967ce3deef73648d589c39aa"
  },
  "16": {
      "name": "17",
      "genre": "Unknown",
      "thumb": "https://i.ibb.co/3Mw3spc/Tom-and-Jerry.jpg",
      "url": "https://nahrajsoubor.cz/257a1a4c105f77aef8c8704a943132b7277365121123558342fa895192c79f8d"
  },
  "17": {
      "name": "18",
      "genre": "Unknown",
      "thumb": "https://i.ibb.co/3Mw3spc/Tom-and-Jerry.jpg",
      "url": "https://nahrajsoubor.cz/2cf2a85f2f84b3bfcfdd7fd728412cd7cdd3e5354e4d3aaa00f9d49aeb0349eb"
  },
  "18": {
      "name": "19",
      "genre": "Unknown",
      "thumb": "https://i.ibb.co/3Mw3spc/Tom-and-Jerry.jpg",
      "url": "https://nahrajsoubor.cz/bafc29ff230c32573117a2ad1fea809081dfcda28f47e91a8bfa9ee2ae058a9a"
  },
  "19": {
      "name": "20",
      "genre": "Unknown",
      "thumb": "https://i.ibb.co/3Mw3spc/Tom-and-Jerry.jpg",
      "url": "https://nahrajsoubor.cz/46c3390e3ebd1ed00465365a4b11dc1c1a3cf033948da9241a20731a57e42f47"
  },
  "20": {
      "name": "21",
      "genre": "Unknown",
      "thumb": "https://i.ibb.co/3Mw3spc/Tom-and-Jerry.jpg",
      "url": "https://nahrajsoubor.cz/f4f7b3a350062031d92449b902ce357c43c24f0c70b2b25e99ca3d26269818ab"
  },
  "21": {
      "name": "22",
      "genre": "Unknown",
      "thumb": "https://i.ibb.co/3Mw3spc/Tom-and-Jerry.jpg",
      "url": "https://nahrajsoubor.cz/e64f01e1dab222f1a77343614dc2ab6e184bd267b2c2234a781a472348ddcd09"
  },
  "22": {
      "name": "23",
      "genre": "Unknown",
      "thumb": "https://i.ibb.co/3Mw3spc/Tom-and-Jerry.jpg",
      "url": "https://nahrajsoubor.cz/de3a29b9dc2ed49c6a5e73c75f9af182e87c96be2bac92cbc2c967b66e9fb418"
  },
  "23": {
      "name": "24",
      "genre": "Unknown",
      "thumb": "https://i.ibb.co/3Mw3spc/Tom-and-Jerry.jpg",
      "url": "https://nahrajsoubor.cz/b506f06bade627379b7c17dfd316fe2ee2c3595175f2a70a3ae2b124f1cb3b74"
  },
  "24": {
      "name": "25",
      "genre": "Unknown",
      "thumb": "https://i.ibb.co/3Mw3spc/Tom-and-Jerry.jpg",
      "url": "https://nahrajsoubor.cz/40f5d8b0864f925b4fa25baa872a84e0452a31d783a3e999d3e330f5121830f8"
  },
  "25": {
      "name": "26",
      "genre": "Unknown",
      "thumb": "https://i.ibb.co/3Mw3spc/Tom-and-Jerry.jpg",
      "url": "https://nahrajsoubor.cz/918526ee57742c1cc0090ddb12964cd2feea9c3226583219d40e98142d0581ec"
  },
  "26": {
      "name": "27",
      "genre": "Unknown",
      "thumb": "https://i.ibb.co/3Mw3spc/Tom-and-Jerry.jpg",
      "url": "https://nahrajsoubor.cz/36d6bb57a1ffa5b8d96d04296996bde5c6b5abdbd664cfdec241b89ab3f841ae"
  },
  "27": {
      "name": "28",
      "genre": "Unknown",
      "thumb": "https://i.ibb.co/3Mw3spc/Tom-and-Jerry.jpg",
      "url": "https://nahrajsoubor.cz/539301d298828150ffed33c704233a622bf866dd653cdbf632a1ba0d7b509a3e"
  },
  "28": {
      "name": "29",
      "genre": "Unknown",
      "thumb": "https://i.ibb.co/3Mw3spc/Tom-and-Jerry.jpg",
      "url": "https://nahrajsoubor.cz/1ee4742b4bbdd5ff66ed97df0af752d53cac5c27deb533a8fac308d87aff3b40"
  },
  "29": {
      "name": "30",
      "genre": "Unknown",
      "thumb": "https://i.ibb.co/3Mw3spc/Tom-and-Jerry.jpg",
      "url": "https://nahrajsoubor.cz/ee5f688962e859b1748847e256f84c8dfb50626e5a562fe46b26eb90ac82ee6e"
  },
  "30": {
      "name": "31",
      "genre": "Unknown",
      "thumb": "https://i.ibb.co/3Mw3spc/Tom-and-Jerry.jpg",
      "url": "https://nahrajsoubor.cz/f00160e6efac4d967d173c2903bfc67ab12f61ac087a47e1c5e56686c8f41169"
  },
  "31": {
      "name": "32",
      "genre": "Unknown",
      "thumb": "https://i.ibb.co/3Mw3spc/Tom-and-Jerry.jpg",
      "url": "https://nahrajsoubor.cz/04e8a2ed2b236e24a1119581482fa558a003a1daeef701da0b5ce1647d076edc"
  },
  "32": {
      "name": "33",
      "genre": "Unknown",
      "thumb": "https://i.ibb.co/3Mw3spc/Tom-and-Jerry.jpg",
      "url": "https://nahrajsoubor.cz/c73b27233270bea67c65647c7f5e0e511cab9744dfab18b52d4214cde4ed7ce2"
  },
  "33": {
      "name": "34",
      "genre": "Unknown",
      "thumb": "https://i.ibb.co/3Mw3spc/Tom-and-Jerry.jpg",
      "url": "https://nahrajsoubor.cz/eac01396ee5276171926be22c0578a44bd33ebaf8a723386c0b7b5efea5b268e"
  },
  "34": {
      "name": "35",
      "genre": "Unknown",
      "thumb": "https://i.ibb.co/3Mw3spc/Tom-and-Jerry.jpg",
      "url": "https://nahrajsoubor.cz/6f07bb843119ecf2f13696ab2291f797c35aa51b203c2edee0f223a5b54e7105"
  },
  "35": {
      "name": "36",
      "genre": "Unknown",
      "thumb": "https://i.ibb.co/3Mw3spc/Tom-and-Jerry.jpg",
      "url": "https://nahrajsoubor.cz/5fc83aef3391a69e86ab8f10decffd9ef5631e3f87c9daafc6bb584a8995c5c1"
  },
  "36": {
      "name": "37",
      "genre": "Unknown",
      "thumb": "https://i.ibb.co/3Mw3spc/Tom-and-Jerry.jpg",
      "url": "https://nahrajsoubor.cz/d2ef96c30ac3a26a130057d9d5fec71d6e35903195ba5735e765da80c62a83fc"
  },
  "37": {
      "name": "38",
      "genre": "Unknown",
      "thumb": "https://i.ibb.co/3Mw3spc/Tom-and-Jerry.jpg",
      "url": "https://nahrajsoubor.cz/012afb9066648311084829862d472db68be6dbdb0d2601d927db8186bffd2494"
  },
  "38": {
      "name": "39",
      "genre": "Unknown",
      "thumb": "https://i.ibb.co/3Mw3spc/Tom-and-Jerry.jpg",
      "url": "https://nahrajsoubor.cz/b0e367d9925c9581f1024bbc6c08034d945c2bc5379faad6624ca6ddfabce585"
  },
  "39": {
      "name": "40",
      "genre": "Unknown",
      "thumb": "https://i.ibb.co/3Mw3spc/Tom-and-Jerry.jpg",
      "url": "https://nahrajsoubor.cz/6fee864edb72e3f18949d622b779b030ad15d3a36b5b7d20b4b5fec816d1749c"
  },
  "40": {
      "name": "41",
      "genre": "Unknown",
      "thumb": "https://i.ibb.co/3Mw3spc/Tom-and-Jerry.jpg",
      "url": "https://nahrajsoubor.cz/71f64a0ee7be7b6c94317c9d5ebad74e8f266b615242ebe13d3ce06cfdd10ed0"
  },
  "41": {
      "name": "42",
      "genre": "Unknown",
      "thumb": "https://i.ibb.co/3Mw3spc/Tom-and-Jerry.jpg",
      "url": "https://nahrajsoubor.cz/f577b091b218ec0d8ad7bf84fc2a37ff8ee69f92e4df0e5796df5f0190741177"
  },
  "42": {
      "name": "43",
      "genre": "Unknown",
      "thumb": "https://i.ibb.co/3Mw3spc/Tom-and-Jerry.jpg",
      "url": "https://nahrajsoubor.cz/dfc576204b5bc66095b2d972a725b10c4c8f2e18d7ef56e62dc11eab0376be0d"
  },
  "43": {
      "name": "44",
      "genre": "Unknown",
      "thumb": "https://i.ibb.co/3Mw3spc/Tom-and-Jerry.jpg",
      "url": "https://nahrajsoubor.cz/486c27f8ad6d64fc216c28f30986d46124f25efc0ec298e836aef48cee026256"
  },
  "44": {
      "name": "45",
      "genre": "Unknown",
      "thumb": "https://i.ibb.co/3Mw3spc/Tom-and-Jerry.jpg",
      "url": "https://nahrajsoubor.cz/ab8514c42321c22bd03cb2edcf5f58e02cd0b11a21525cd34c7a1ca4892ffd54"
  },
  "45": {
      "name": "46",
      "genre": "Unknown",
      "thumb": "https://i.ibb.co/3Mw3spc/Tom-and-Jerry.jpg",
      "url": "https://nahrajsoubor.cz/d3d176b1e4ed06fc98adf255633d6419cab99c88e9c8262d66ff00cfff78f775"
  },
  "46": {
      "name": "47",
      "genre": "Unknown",
      "thumb": "https://i.ibb.co/3Mw3spc/Tom-and-Jerry.jpg",
      "url": "https://nahrajsoubor.cz/2feee3659bdcd9df592f99425995011e9c5c7fc69ae7b7a3a24037a10e45baf9"
  },
  "47": {
      "name": "48",
      "genre": "Unknown",
      "thumb": "https://i.ibb.co/3Mw3spc/Tom-and-Jerry.jpg",
      "url": "https://nahrajsoubor.cz/b3c9d6423da1c3e6a0f098839db223c12500451f0132f15ce8edcb79205de22f"
  },
  "48": {
      "name": "49",
      "genre": "Unknown",
      "thumb": "https://i.ibb.co/3Mw3spc/Tom-and-Jerry.jpg",
      "url": "https://nahrajsoubor.cz/304001dd32063ab53a3873b7c81f26e46dfa24db402aa5216de6f5366d276340"
  },
  "49": {
      "name": "50",
      "genre": "Unknown",
      "thumb": "https://i.ibb.co/3Mw3spc/Tom-and-Jerry.jpg",
      "url": "https://nahrajsoubor.cz/468ffd85a57d1a21f65596c31f55250fab34979f02999e4f2be0de9cad5b3178"
  },
  "50": {
      "name": "51",
      "genre": "Unknown",
      "thumb": "https://i.ibb.co/3Mw3spc/Tom-and-Jerry.jpg",
      "url": "https://nahrajsoubor.cz/727ef27571ab4e722885960f53dca1db379fc8635092e3f88aa1ce74f4c82ed3"
  },
  "51": {
      "name": "52",
      "genre": "Unknown",
      "thumb": "https://i.ibb.co/3Mw3spc/Tom-and-Jerry.jpg",
      "url": "https://nahrajsoubor.cz/163a9ba171cf51f016dfd1b26132e798f5c5aa5532018874749e927fc8a37cd5"
  },
  "52": {
      "name": "53",
      "genre": "Unknown",
      "thumb": "https://i.ibb.co/3Mw3spc/Tom-and-Jerry.jpg",
      "url": "https://nahrajsoubor.cz/10590d3480e131157e1be827f71e59900a3bc2c5beec9fe12cb8466b0174a4a8"
  },
  "53": {
      "name": "54",
      "genre": "Unknown",
      "thumb": "https://i.ibb.co/3Mw3spc/Tom-and-Jerry.jpg",
      "url": "https://nahrajsoubor.cz/b2aacc31ed86a791f500e3149b15d9959c82dfb5d83b4df57cb8425fc68b7b1a"
  },
  "54": {
      "name": "55",
      "genre": "Unknown",
      "thumb": "https://i.ibb.co/3Mw3spc/Tom-and-Jerry.jpg",
      "url": "https://nahrajsoubor.cz/ddd6acfd61ad8f18c0f8aa9b6f459d248f006721741fbe8d5ab6bd94dcb96fa8"
  },
  "55": {
      "name": "56",
      "genre": "Unknown",
      "thumb": "https://i.ibb.co/3Mw3spc/Tom-and-Jerry.jpg",
      "url": "https://nahrajsoubor.cz/448b3cf4f61907a1123c439b5f16739879db3c1c38a14579c7670d6bf289c3b4"
  },
  "56": {
      "name": "57",
      "genre": "Unknown",
      "thumb": "https://i.ibb.co/3Mw3spc/Tom-and-Jerry.jpg",
      "url": "https://nahrajsoubor.cz/4a4aead2f67a1be557595152f276dfd7d8a42a45eb7ad056bf1914b8b0789fd9"
  },
  "57": {
      "name": "58",
      "genre": "Unknown",
      "thumb": "https://i.ibb.co/3Mw3spc/Tom-and-Jerry.jpg",
      "url": "https://nahrajsoubor.cz/c9623817f3ed3e8d8f2313b21a7a19cbd0aaa2277b6cdef67883501bbffad1fe"
  },
  "58": {
      "name": "59",
      "genre": "Unknown",
      "thumb": "https://i.ibb.co/3Mw3spc/Tom-and-Jerry.jpg",
      "url": "https://nahrajsoubor.cz/d3a45dd71acb95bfbddb10fa69aa9c57cfc0b29e923c6f46fedeaea282c94eae"
  },
  "59": {
      "name": "60",
      "genre": "Unknown",
      "thumb": "https://i.ibb.co/3Mw3spc/Tom-and-Jerry.jpg",
      "url": "https://nahrajsoubor.cz/e88696ff2f7b393f53d7ccd066afd45a2107aa081016911d9bb57607c91a240d"
  },
  "60": {
      "name": "61",
      "genre": "Unknown",
      "thumb": "https://i.ibb.co/3Mw3spc/Tom-and-Jerry.jpg",
      "url": "https://nahrajsoubor.cz/b3907bbd6ff021af340317037f4e95af967466081982596e8436e7bfea40b487"
  },
  "61": {
      "name": "62",
      "genre": "Unknown",
      "thumb": "https://i.ibb.co/3Mw3spc/Tom-and-Jerry.jpg",
      "url": "https://nahrajsoubor.cz/b4470b7997770d1e2acb13bd95d65191da1f63be30a2a1399c736197439a2784"
  },
  "62": {
      "name": "63",
      "genre": "Unknown",
      "thumb": "https://i.ibb.co/3Mw3spc/Tom-and-Jerry.jpg",
      "url": "https://nahrajsoubor.cz/42574e25cda5385b686fb8fb718bcd5d2ff980354d1d09345ff8d4d941310475"
  },
  "63": {
      "name": "64",
      "genre": "Unknown",
      "thumb": "https://i.ibb.co/3Mw3spc/Tom-and-Jerry.jpg",
      "url": "https://nahrajsoubor.cz/febde59a1bf19846b42ab8ff5846f3d774d0dcabbd2e21a0324e0e0bca107777"
  },
  "64": {
      "name": "65",
      "genre": "Unknown",
      "thumb": "https://i.ibb.co/3Mw3spc/Tom-and-Jerry.jpg",
      "url": "https://nahrajsoubor.cz/7529fb203a9b7dd94ce856e8e62d0e2d670ff563d474f7ace0b43833c44fbc02"
  },
  "65": {
      "name": "66",
      "genre": "Unknown",
      "thumb": "https://i.ibb.co/3Mw3spc/Tom-and-Jerry.jpg",
      "url": "https://nahrajsoubor.cz/73e5e7351803a25e68fec075d35461507ae26dcb85e7ba93d497340dbac0fdfc"
  },
  "66": {
      "name": "67",
      "genre": "Unknown",
      "thumb": "https://i.ibb.co/3Mw3spc/Tom-and-Jerry.jpg",
      "url": "https://nahrajsoubor.cz/06a7eb9a69f82ac4125f428d29bf8906914a0e7f0ee17008ee482da6a0ce4bab"
  },
  "67": {
      "name": "68",
      "genre": "Unknown",
      "thumb": "https://i.ibb.co/3Mw3spc/Tom-and-Jerry.jpg",
      "url": "https://nahrajsoubor.cz/d7893fb3346b89c3379192d0f5255fb8d14fe5d0fb89d93719e054553343b7fb"
  },
  "68": {
      "name": "69",
      "genre": "Unknown",
      "thumb": "https://i.ibb.co/3Mw3spc/Tom-and-Jerry.jpg",
      "url": "https://nahrajsoubor.cz/1379c35c4c87dc5310d119688897db6fd6ed0498763eb90cb55f3d081fb74fe5"
  },
  "69": {
      "name": "70",
      "genre": "Unknown",
      "thumb": "https://i.ibb.co/3Mw3spc/Tom-and-Jerry.jpg",
      "url": "https://nahrajsoubor.cz/dc52916b9694e2aa3ce7b2e749c23f7b049d72681e33838fdb93307a5063055f"
  },
  "70": {
      "name": "71",
      "genre": "Unknown",
      "thumb": "https://i.ibb.co/3Mw3spc/Tom-and-Jerry.jpg",
      "url": "https://nahrajsoubor.cz/fe637c0b5a2174c2941100250fccc04ae1d6ad2d281f9262c679972d3f0b1fce"
  },
  "71": {
      "name": "72",
      "genre": "Unknown",
      "thumb": "https://i.ibb.co/3Mw3spc/Tom-and-Jerry.jpg",
      "url": "https://nahrajsoubor.cz/ea1667b81447e66da97fbbf84896ebc49e22785728a1024cc33499e548d00f1a"
  },
  "72": {
      "name": "73",
      "genre": "Unknown",
      "thumb": "https://i.ibb.co/3Mw3spc/Tom-and-Jerry.jpg",
      "url": "https://nahrajsoubor.cz/6875aea7afe1bd2c24604786993a692d43e9967b07cf9b549d335bbf7a222b26"
  },
  "73": {
      "name": "74",
      "genre": "Unknown",
      "thumb": "https://i.ibb.co/3Mw3spc/Tom-and-Jerry.jpg",
      "url": "https://nahrajsoubor.cz/3e79747c04ad05f871d4a027e3cadad8f935bf414aa6e9dc070f0316fc845ed0"
  },
  "74": {
      "name": "75",
      "genre": "Unknown",
      "thumb": "https://i.ibb.co/3Mw3spc/Tom-and-Jerry.jpg",
      "url": "https://nahrajsoubor.cz/c6bd17f8eab2bc795e0a6a911818a3a98315f0f39442a15d3b8fb7a92a804394"
  },
  "75": {
      "name": "76",
      "genre": "Unknown",
      "thumb": "https://i.ibb.co/3Mw3spc/Tom-and-Jerry.jpg",
      "url": "https://nahrajsoubor.cz/2bebebc37ee9cd092c9fe067f570bb37c05f8d18a3782068bd3af638e10d141d"
  },
  "76": {
      "name": "77",
      "genre": "Unknown",
      "thumb": "https://i.ibb.co/3Mw3spc/Tom-and-Jerry.jpg",
      "url": "https://nahrajsoubor.cz/9eae55eead4497a3380c90b8a62e378876f8152260d94c97b0cab5cb4a2e0fa1"
  },
  "77": {
      "name": "78",
      "genre": "Unknown",
      "thumb": "https://i.ibb.co/3Mw3spc/Tom-and-Jerry.jpg",
      "url": "https://nahrajsoubor.cz/3610b1f335fd075297c47d3891dc480746d0b18ab67326f86a4adafe3a131c33"
  },
  "78": {
      "name": "79",
      "genre": "Unknown",
      "thumb": "https://i.ibb.co/3Mw3spc/Tom-and-Jerry.jpg",
      "url": "https://nahrajsoubor.cz/56830215e40f8436a29cf3d9a9dcfdbf0cbef9e1f78190276ab86c260e3f4ba5"
  },
  "79": {
      "name": "80",
      "genre": "Unknown",
      "thumb": "https://i.ibb.co/3Mw3spc/Tom-and-Jerry.jpg",
      "url": "https://nahrajsoubor.cz/3a91a2cbd2a37b700320f69eec237874afbd2add79727d97acdefe845de4972f"
  },
  "80": {
      "name": "81",
      "genre": "Unknown",
      "thumb": "https://i.ibb.co/3Mw3spc/Tom-and-Jerry.jpg",
      "url": "https://nahrajsoubor.cz/7422af4627cc2caaa4022aabfd4f98789252b7a62fe3e30b1ed080b4b477e58e"
  },
  "81": {
      "name": "82",
      "genre": "Unknown",
      "thumb": "https://i.ibb.co/3Mw3spc/Tom-and-Jerry.jpg",
      "url": "https://nahrajsoubor.cz/d1a22f07e03f23b4da66e85db5ddf5fb29aad123a3ac24230b4ce9b2e18e8c23"
  },
  "82": {
      "name": "83",
      "genre": "Unknown",
      "thumb": "https://i.ibb.co/3Mw3spc/Tom-and-Jerry.jpg",
      "url": "https://nahrajsoubor.cz/bd58b5c3781bd080df0188f826dee9f8f918575a921176b466a7c4c229c9f816"
  },
  "83": {
      "name": "84",
      "genre": "Unknown",
      "thumb": "https://i.ibb.co/3Mw3spc/Tom-and-Jerry.jpg",
      "url": "https://nahrajsoubor.cz/e1c13b53ca60872a611ce44f09be51f74941e10a6970110a92ed1ce594bc3335"
  },
  "84": {
      "name": "85",
      "genre": "Unknown",
      "thumb": "https://i.ibb.co/3Mw3spc/Tom-and-Jerry.jpg",
      "url": "https://nahrajsoubor.cz/a7c578841d499623bbc864ff1a79087a121e7c417e18d3f47178c6b35e8aeec2"
  },
  "85": {
      "name": "86",
      "genre": "Unknown",
      "thumb": "https://i.ibb.co/3Mw3spc/Tom-and-Jerry.jpg",
      "url": "https://nahrajsoubor.cz/ab29c53539dfce67a8c82d0fd4a36a1d229d92263a62afb70d98b8ab2458fde9"
  },
  "86": {
      "name": "87",
      "genre": "Unknown",
      "thumb": "https://i.ibb.co/3Mw3spc/Tom-and-Jerry.jpg",
      "url": "https://nahrajsoubor.cz/8cda4817014505ffaab8ce116f6b3a58ec1cfccbbad567d3eb2f7c902d925b64"
  },
  "87": {
      "name": "88",
      "genre": "Unknown",
      "thumb": "https://i.ibb.co/3Mw3spc/Tom-and-Jerry.jpg",
      "url": "https://nahrajsoubor.cz/154d2faf12ef4b2e564a9dbd4510a46bd943f91b5c9df375b5423c9e1e546285"
  },
  "88": {
      "name": "89",
      "genre": "Unknown",
      "thumb": "https://i.ibb.co/3Mw3spc/Tom-and-Jerry.jpg",
      "url": "https://nahrajsoubor.cz/92233d771774a70e0c4edcee6a78ef8f408381faf9ca089a407a1c1aca68d868"
  },
  "89": {
      "name": "90",
      "genre": "Unknown",
      "thumb": "https://i.ibb.co/3Mw3spc/Tom-and-Jerry.jpg",
      "url": "https://nahrajsoubor.cz/cc1c5e7e34ca4d7c351eb907873e8c3b39455d220118ef3b1967168e0fe3ff24"
  },
  "90": {
      "name": "91",
      "genre": "Unknown",
      "thumb": "https://i.ibb.co/3Mw3spc/Tom-and-Jerry.jpg",
      "url": "https://nahrajsoubor.cz/5a496eb15c4a29049abc0434af949a34272e9d29e1d8f82427497e7d122960d2"
  },
  "91": {
      "name": "92",
      "genre": "Unknown",
      "thumb": "https://i.ibb.co/3Mw3spc/Tom-and-Jerry.jpg",
      "url": "https://nahrajsoubor.cz/28f5e7b616d18ca048d89f3706e4e87e016f8654692c5362699eec93d9a3f097"
  },
  "92": {
      "name": "93",
      "genre": "Unknown",
      "thumb": "https://i.ibb.co/3Mw3spc/Tom-and-Jerry.jpg",
      "url": "https://nahrajsoubor.cz/1ba1fdccf063a07db4783b2b153a6d1fec308589b6c4595e2bfff18c681882d5"
  },
  "93": {
      "name": "94",
      "genre": "Unknown",
      "thumb": "https://i.ibb.co/3Mw3spc/Tom-and-Jerry.jpg",
      "url": "https://nahrajsoubor.cz/be0d50328f5a31a4db73174cdb5beb69cc7d79e1ce014a2468b379dce3df5942"
  },
  "94": {
      "name": "95",
      "genre": "Unknown",
      "thumb": "https://i.ibb.co/3Mw3spc/Tom-and-Jerry.jpg",
      "url": "https://nahrajsoubor.cz/61b4ae37a3e8b795738e18b06c1be9e15ed6ce1766e644f56d765e2045366e4f"
  },
  "95": {
      "name": "96",
      "genre": "Unknown",
      "thumb": "https://i.ibb.co/3Mw3spc/Tom-and-Jerry.jpg",
      "url": "https://nahrajsoubor.cz/ffd96412891428a1ede7349c044b59691c883187995cec670587a997a4f1a3a3"
  },
  "96": {
      "name": "97",
      "genre": "Unknown",
      "thumb": "https://i.ibb.co/3Mw3spc/Tom-and-Jerry.jpg",
      "url": "https://nahrajsoubor.cz/1a2fd94f58a47760cb5f6326ede862f73d91fb48df929939e74f1d709093cf68"
  },
  "97": {
      "name": "98",
      "genre": "Unknown",
      "thumb": "https://i.ibb.co/3Mw3spc/Tom-and-Jerry.jpg",
      "url": "https://nahrajsoubor.cz/016c55deec345243e109c29c8f3030365aecb01eb7f278193a8c0ae5fe4a8814"
  },
  "98": {
      "name": "99",
      "genre": "Unknown",
      "thumb": "https://i.ibb.co/3Mw3spc/Tom-and-Jerry.jpg",
      "url": "https://nahrajsoubor.cz/a2e0fe5da124aa258ef9f408408170accd03c7c0fd547851726061a27b93bea2"
  },
  "99": {
      "name": "100",
      "genre": "Unknown",
      "thumb": "https://i.ibb.co/3Mw3spc/Tom-and-Jerry.jpg",
      "url": "https://nahrajsoubor.cz/847a005e4637a1014b0570cc706dac50e815fcbd55341d9fa65464eea202c0b3"
  },
  "100": {
      "name": "101",
      "genre": "Unknown",
      "thumb": "https://i.ibb.co/3Mw3spc/Tom-and-Jerry.jpg",
      "url": "https://nahrajsoubor.cz/be2a47149c184126a86be29d823a369eb4c131c68ebc24494c9c056c2c8048b5"
  },
  "101": {
      "name": "102",
      "genre": "Unknown",
      "thumb": "https://i.ibb.co/3Mw3spc/Tom-and-Jerry.jpg",
      "url": "https://nahrajsoubor.cz/e78b50a8cd448a71947a4b7f406174119b4c4d4f3cd6a3f3f436dbbf3c4355cb"
  },
  "102": {
      "name": "103",
      "genre": "Unknown",
      "thumb": "https://i.ibb.co/3Mw3spc/Tom-and-Jerry.jpg",
      "url": "https://nahrajsoubor.cz/8894a36687c66d06bde93d26d00b22e57d61959471eaa03df5090967d562686e"
  },
  "103": {
      "name": "104",
      "genre": "Unknown",
      "thumb": "https://i.ibb.co/3Mw3spc/Tom-and-Jerry.jpg",
      "url": "https://nahrajsoubor.cz/0d825ae973f905b078e92d76d3232abc8f33b0a8e089c589f3927ce2027aebb7"
  },
  "104": {
      "name": "105",
      "genre": "Unknown",
      "thumb": "https://i.ibb.co/3Mw3spc/Tom-and-Jerry.jpg",
      "url": "https://nahrajsoubor.cz/601ed5c57cd223c480430e75984f305266885712b31a90f80e847045aa1c21d8"
  },
  "105": {
      "name": "106",
      "genre": "Unknown",
      "thumb": "https://i.ibb.co/3Mw3spc/Tom-and-Jerry.jpg",
      "url": "https://nahrajsoubor.cz/7346363e736f3ac72a3537c6f2907bd75ef4327cb85761b91071fd5fb85a4813"
  },
  "106": {
      "name": "107",
      "genre": "Unknown",
      "thumb": "https://i.ibb.co/3Mw3spc/Tom-and-Jerry.jpg",
      "url": "https://nahrajsoubor.cz/37400c5afe917a0d1c2db0668d8ddc98265923d7830878bce2fdd810153f05fb"
  },
  "107": {
      "name": "108",
      "genre": "Unknown",
      "thumb": "https://i.ibb.co/3Mw3spc/Tom-and-Jerry.jpg",
      "url": "https://nahrajsoubor.cz/79ce68d00a58255c17b6ec3db76e0533e78189a64706183ecc38453c66c30a14"
  },
  "108": {
      "name": "109",
      "genre": "Unknown",
      "thumb": "https://i.ibb.co/3Mw3spc/Tom-and-Jerry.jpg",
      "url": "https://nahrajsoubor.cz/6dc44f43c000fd117d86584982866f4affe3188db6d762c4c7e70ee3c6278211"
  },
  "109": {
      "name": "110",
      "genre": "Unknown",
      "thumb": "https://i.ibb.co/3Mw3spc/Tom-and-Jerry.jpg",
      "url": "https://nahrajsoubor.cz/39fd984d8fcb74de0f687b50cf4a14020ad856929504105dc91da1e49e652969"
  },
  "110": {
      "name": "111",
      "genre": "Unknown",
      "thumb": "https://i.ibb.co/3Mw3spc/Tom-and-Jerry.jpg",
      "url": "https://nahrajsoubor.cz/5f7bb44bcf330a4366ef3fa33d95e0b2dfcf54b5c28b1ccfda3d2447f08c9c98"
  },
  "111": {
      "name": "112",
      "genre": "Unknown",
      "thumb": "https://i.ibb.co/3Mw3spc/Tom-and-Jerry.jpg",
      "url": "https://nahrajsoubor.cz/8b6160524555408d4f49c6dba01ecfedc959cc5b21255fae7ab678611b52f85c"
  },
  "112": {
      "name": "113",
      "genre": "Unknown",
      "thumb": "https://i.ibb.co/3Mw3spc/Tom-and-Jerry.jpg",
      "url": "https://nahrajsoubor.cz/a623d2af3a3690b2e93f390fc41b84265279a23d706f0cd1c1b8e770af57c463"
  },
  "113": {
      "name": "114",
      "genre": "Unknown",
      "thumb": "https://i.ibb.co/3Mw3spc/Tom-and-Jerry.jpg",
      "url": "https://nahrajsoubor.cz/69726dc8597bcce92cdd2dab668d58644e8157c6a647cc365eb170699f0957d2"
  },
  "114": {
      "name": "115",
      "genre": "Unknown",
      "thumb": "https://i.ibb.co/3Mw3spc/Tom-and-Jerry.jpg",
      "url": "https://nahrajsoubor.cz/07e30ac0e62b8e62cce2cce28a7f73cf82c27e991bdfc55daa619b11106d93b9"
  },
  "115": {
      "name": "116",
      "genre": "Unknown",
      "thumb": "https://i.ibb.co/3Mw3spc/Tom-and-Jerry.jpg",
      "url": "https://nahrajsoubor.cz/12b64372edb994892c1e999f7454baa6e2bdc5a1ad821a675855faa1bbb152ab"
  },
  "116": {
      "name": "117",
      "genre": "Unknown",
      "thumb": "https://i.ibb.co/3Mw3spc/Tom-and-Jerry.jpg",
      "url": "https://nahrajsoubor.cz/caea5e6b9bdc25ff807c2bd760147d5e70409f6203383375bf068947141ace50"
  },
  "117": {
      "name": "118",
      "genre": "Unknown",
      "thumb": "https://i.ibb.co/3Mw3spc/Tom-and-Jerry.jpg",
      "url": "https://nahrajsoubor.cz/d482a2105bd0e1d617094fa8ed5c618b35c42ab839aebdefc42d9fdac7332c85"
  },
  "118": {
      "name": "119",
      "genre": "Unknown",
      "thumb": "https://i.ibb.co/3Mw3spc/Tom-and-Jerry.jpg",
      "url": "https://nahrajsoubor.cz/dcd53250f52a6536e4a1f0177736ad342215fa489ec90b001796238d8ec77627"
  },
  "119": {
      "name": "120",
      "genre": "Unknown",
      "thumb": "https://i.ibb.co/3Mw3spc/Tom-and-Jerry.jpg",
      "url": "https://nahrajsoubor.cz/a59977c888909b0a0cf147487ddcf35f004e2210306e3744f10a607e584b4b1d"
  },
  "120": {
      "name": "121",
      "genre": "Unknown",
      "thumb": "https://i.ibb.co/3Mw3spc/Tom-and-Jerry.jpg",
      "url": "https://nahrajsoubor.cz/a6b3b6dbab5d58e35bac1cc86b4b22fdaa4896c6d27c1559068740d73d15ba44"
  },
  "121": {
      "name": "122",
      "genre": "Unknown",
      "thumb": "https://i.ibb.co/3Mw3spc/Tom-and-Jerry.jpg",
      "url": "https://nahrajsoubor.cz/a5f54cb60145f2c4e921aafbcfb75a7859ab1deab9a2dd5f53a6b2f81300ec6a"
  },
  "122": {
      "name": "123",
      "genre": "Unknown",
      "thumb": "https://i.ibb.co/3Mw3spc/Tom-and-Jerry.jpg",
      "url": "https://nahrajsoubor.cz/77e05f3533cf0753111483df5f25e2af93c0218ef84d1def3bf382bfc8b04a9c"
  },
  "123": {
      "name": "124",
      "genre": "Unknown",
      "thumb": "https://i.ibb.co/3Mw3spc/Tom-and-Jerry.jpg",
      "url": "https://nahrajsoubor.cz/342f44b1e632b3c76a54201a37fc40efa3a350872f84af281ef452279eb0948d"
  },
  "124": {
      "name": "125",
      "genre": "Unknown",
      "thumb": "https://i.ibb.co/3Mw3spc/Tom-and-Jerry.jpg",
      "url": "https://nahrajsoubor.cz/3c74611deb15b97224ee43af1c21828285b463bac4bb9ce69b7323fba15aff8e"
  },
  "125": {
      "name": "126",
      "genre": "Unknown",
      "thumb": "https://i.ibb.co/3Mw3spc/Tom-and-Jerry.jpg",
      "url": "https://nahrajsoubor.cz/2b881299df08f0d46296f0fbe985ae636f4a6f81e404abde69a44cdce6711bac"
  },
  "126": {
      "name": "127",
      "genre": "Unknown",
      "thumb": "https://i.ibb.co/3Mw3spc/Tom-and-Jerry.jpg",
      "url": "https://nahrajsoubor.cz/c1b522cf8c25d3e39d94b608d9188f0e1dbc996f9e3a66ecd142b7e1fd24e6c2"
  },
  "127": {
      "name": "128",
      "genre": "Unknown",
      "thumb": "https://i.ibb.co/3Mw3spc/Tom-and-Jerry.jpg",
      "url": "https://nahrajsoubor.cz/6cf6013bd995e9ca720b9108a94c5bfb443b1779d6979db7a6e652756e5adf78"
  },
  "128": {
      "name": "129",
      "genre": "Unknown",
      "thumb": "https://i.ibb.co/3Mw3spc/Tom-and-Jerry.jpg",
      "url": "https://nahrajsoubor.cz/b5a814a9d1ddf7a107db4dea2552575a333d39e7df243cb0f0c79527f45b50a6"
  },
  "129": {
      "name": "130",
      "genre": "Unknown",
      "thumb": "https://i.ibb.co/3Mw3spc/Tom-and-Jerry.jpg",
      "url": "https://nahrajsoubor.cz/9e69a7f9c9f0aa40cf251c632db043eec823742195f1754058736157dad91285"
  },
  "130": {
      "name": "131",
      "genre": "Unknown",
      "thumb": "https://i.ibb.co/3Mw3spc/Tom-and-Jerry.jpg",
      "url": "https://nahrajsoubor.cz/8823b9de5cfb5122ada7ba2f5838a672dfe1a8ab8aa7cc1466898205379e09ea"
  },
  "131": {
      "name": "132",
      "genre": "Unknown",
      "thumb": "https://i.ibb.co/3Mw3spc/Tom-and-Jerry.jpg",
      "url": "https://nahrajsoubor.cz/b1a64779f3327396358a673d49dc1c37544871d397398879b759be68ff5d2ed2"
  },
  "132": {
      "name": "133",
      "genre": "Unknown",
      "thumb": "https://i.ibb.co/3Mw3spc/Tom-and-Jerry.jpg",
      "url": "https://nahrajsoubor.cz/600b4549957bcdc4740b72ef12d289b94e6e4e52480feeea6997482c84ab6797"
  },
  "133": {
      "name": "134",
      "genre": "Unknown",
      "thumb": "https://i.ibb.co/3Mw3spc/Tom-and-Jerry.jpg",
      "url": "https://nahrajsoubor.cz/a5b321550a69ddb851656a64fab97ba63f684e10b51c068d852d6ddf76e1034c"
  },
  "134": {
      "name": "135",
      "genre": "Unknown",
      "thumb": "https://i.ibb.co/3Mw3spc/Tom-and-Jerry.jpg",
      "url": "https://nahrajsoubor.cz/fff612714402bd626e068346153316e5a33a4fc22b268a7a786569b9f609a381"
  },
  "135": {
      "name": "136",
      "genre": "Unknown",
      "thumb": "https://i.ibb.co/3Mw3spc/Tom-and-Jerry.jpg",
      "url": "https://nahrajsoubor.cz/cfb6913746c027cd0491743c331c8be1ef3292e3d6c8e52d2fa9156bdebab669"
  },
  "136": {
      "name": "137",
      "genre": "Unknown",
      "thumb": "https://i.ibb.co/3Mw3spc/Tom-and-Jerry.jpg",
      "url": "https://nahrajsoubor.cz/48a945b93de4f8df275549e539835e5f5d28b85892c61c7eae79ad3a37658d93"
  },
  "137": {
      "name": "138",
      "genre": "Unknown",
      "thumb": "https://i.ibb.co/3Mw3spc/Tom-and-Jerry.jpg",
      "url": "https://nahrajsoubor.cz/3a7fd5824de30f72b14775b2d75dbe36198546656d2b999f89d2e5141c3cbf26"
  },
  "138": {
      "name": "139",
      "genre": "Unknown",
      "thumb": "https://i.ibb.co/3Mw3spc/Tom-and-Jerry.jpg",
      "url": "https://nahrajsoubor.cz/9c2c6a8668af5e55fdefeddeb5c032607478a31f0297a5a37ecc76e5d92dc136"
  },
  "139": {
      "name": "140",
      "genre": "Unknown",
      "thumb": "https://i.ibb.co/3Mw3spc/Tom-and-Jerry.jpg",
      "url": "https://nahrajsoubor.cz/a40252724db91ca4a48b374a47b99761ccd8a38a22a273d814b140f0e42ea744"
  },
  "140": {
      "name": "141",
      "genre": "Unknown",
      "thumb": "https://i.ibb.co/3Mw3spc/Tom-and-Jerry.jpg",
      "url": "https://nahrajsoubor.cz/2880b1e7334af5fb07b8a8f981443034864efdf804246910169d8889a9eb4c85"
  },
  "141": {
      "name": "142",
      "genre": "Unknown",
      "thumb": "https://i.ibb.co/3Mw3spc/Tom-and-Jerry.jpg",
      "url": "https://nahrajsoubor.cz/de6958d1cfb21db2e3a165d965ba6bf4f08a39948fb4997b92c19c3c726f67f6"
  },
  "142": {
      "name": "143",
      "genre": "Unknown",
      "thumb": "https://i.ibb.co/3Mw3spc/Tom-and-Jerry.jpg",
      "url": "https://nahrajsoubor.cz/2d9e91c16b6cbd2fea95be1b8c3c51456aa99f2270f8f9e593682d9ef14a336a"
  },
  "143": {
      "name": "144",
      "genre": "Unknown",
      "thumb": "https://i.ibb.co/3Mw3spc/Tom-and-Jerry.jpg",
      "url": "https://nahrajsoubor.cz/f23012555c277c4a72646da0de3064e598becae59475f10cd3d01c524858dd3f"
  },
  "144": {
      "name": "145",
      "genre": "Unknown",
      "thumb": "https://i.ibb.co/3Mw3spc/Tom-and-Jerry.jpg",
      "url": "https://nahrajsoubor.cz/9e2e477edfd99255c32fa06ab4e495ba162d0852dbd1285b6c9ef7b65ad795e8"
  },
  "145": {
      "name": "146",
      "genre": "Unknown",
      "thumb": "https://i.ibb.co/3Mw3spc/Tom-and-Jerry.jpg",
      "url": "https://nahrajsoubor.cz/91d9cb47fe950e4727c9c50da546b3f3a3c6a56cc2c3fadf47bea91689a7abd7"
  },
  "146": {
      "name": "147",
      "genre": "Unknown",
      "thumb": "https://i.ibb.co/3Mw3spc/Tom-and-Jerry.jpg",
      "url": "https://nahrajsoubor.cz/691cdb7482a7ed5a468c591af6e9806ecd7e564eb9a0ce15e27e204fb8feb1a7"
  },
  "147": {
      "name": "148",
      "genre": "Unknown",
      "thumb": "https://i.ibb.co/3Mw3spc/Tom-and-Jerry.jpg",
      "url": "https://nahrajsoubor.cz/d9e0c1592bb713dc1e76e575e079a4a583c3ca1de4d7e87dfb3363f389cfef02"
  },
  "148": {
      "name": "149",
      "genre": "Unknown",
      "thumb": "https://i.ibb.co/3Mw3spc/Tom-and-Jerry.jpg",
      "url": "https://nahrajsoubor.cz/22d7c12b218f509f44173c06d10acc768c4fe6cf112c16fa4a2101bcda0914a4"
  },
  "149": {
      "name": "150",
      "genre": "Unknown",
      "thumb": "https://i.ibb.co/3Mw3spc/Tom-and-Jerry.jpg",
      "url": "https://nahrajsoubor.cz/e7280f41c886f469dbc8cea762ed216a7edd952eb614ecf39692c592346e7911"
  },
  "150": {
      "name": "151",
      "genre": "Unknown",
      "thumb": "https://i.ibb.co/3Mw3spc/Tom-and-Jerry.jpg",
      "url": "https://nahrajsoubor.cz/e5e84eb924b6af1ad21dea93ca058e7c3f9909503cc8775e11561e7e40aa21e2"
  },
  "151": {
      "name": "152",
      "genre": "Unknown",
      "thumb": "https://i.ibb.co/3Mw3spc/Tom-and-Jerry.jpg",
      "url": "https://nahrajsoubor.cz/a61448239a49c86931d980db63c28f1cf995493fa36e10540f8760117f457666"
  },
  "152": {
      "name": "153",
      "genre": "Unknown",
      "thumb": "https://i.ibb.co/3Mw3spc/Tom-and-Jerry.jpg",
      "url": "https://nahrajsoubor.cz/dbf1dd9354e27731443cd31b303410316a19351394b9dab203bbc530ee020054"
  },
  "153": {
      "name": "154",
      "genre": "Unknown",
      "thumb": "https://i.ibb.co/3Mw3spc/Tom-and-Jerry.jpg",
      "url": "https://nahrajsoubor.cz/94ec0b60d0439baddc589f7d495ba8b1389eb6e252d4a07550715030d8b2f430"
  },
  "154": {
      "name": "155",
      "genre": "Unknown",
      "thumb": "https://i.ibb.co/3Mw3spc/Tom-and-Jerry.jpg",
      "url": "https://nahrajsoubor.cz/efdacb538a86db98c4ebc198afc6ee674e7b1c455b70c95e6bbf33d3cf059a9a"
  },
  "155": {
      "name": "156",
      "genre": "Unknown",
      "thumb": "https://i.ibb.co/3Mw3spc/Tom-and-Jerry.jpg",
      "url": "https://nahrajsoubor.cz/e4a66fe591081d2fc4656852150090948b81454ddc5f35dd55ef9e9958a6a6ad"
  },
  "156": {
      "name": "157",
      "genre": "Unknown",
      "thumb": "https://i.ibb.co/3Mw3spc/Tom-and-Jerry.jpg",
      "url": "https://nahrajsoubor.cz/cacd154beda5ed05310c34ff138bb1cdd8870792d58ab8c8e805429b7a54d734"
  },
  "157": {
      "name": "158",
      "genre": "Unknown",
      "thumb": "https://i.ibb.co/3Mw3spc/Tom-and-Jerry.jpg",
      "url": "https://nahrajsoubor.cz/9fbea9693d095e273b8382f37f6953315f194d80ac952db1a0441e1c5cdaec6e"
  },
  "158": {
      "name": "159",
      "genre": "Unknown",
      "thumb": "https://i.ibb.co/3Mw3spc/Tom-and-Jerry.jpg",
      "url": "https://nahrajsoubor.cz/2a350bb87af327d5e0f40d322ea05c0450cac1ab67fe2c357c039c810f1a7c19"
  },
  "159": {
      "name": "160",
      "genre": "Unknown",
      "thumb": "https://i.ibb.co/3Mw3spc/Tom-and-Jerry.jpg",
      "url": "https://nahrajsoubor.cz/df0fe7ac1c672d46e174c7208722de968ff6dfd3062439362fe475c7b61e29ef"
  },
  "160": {
      "name": "161",
      "genre": "Unknown",
      "thumb": "https://i.ibb.co/3Mw3spc/Tom-and-Jerry.jpg",
      "url": "https://nahrajsoubor.cz/455359a016aac75df2eeb32dabe4197770657eb14b7562b1fac4d322d46c86d9"
  },
  "161": {
      "name": "162",
      "genre": "Unknown",
      "thumb": "https://i.ibb.co/3Mw3spc/Tom-and-Jerry.jpg",
      "url": "https://nahrajsoubor.cz/1dcdf21b2917a8a4184d2602fa7178dfeb8a56e15c98ff3fe5e9d493e872fd52"
  },
  "162": {
      "name": "163",
      "genre": "Unknown",
      "thumb": "https://i.ibb.co/3Mw3spc/Tom-and-Jerry.jpg",
      "url": "https://nahrajsoubor.cz/a90f820f4e8ceaa8d4c7acc06f993fb6fe14324e53b9e8ad705978578237a238"
  },
  "163": {
      "name": "164",
      "genre": "Unknown",
      "thumb": "https://i.ibb.co/3Mw3spc/Tom-and-Jerry.jpg",
      "url": "https://nahrajsoubor.cz/241aed74bd70c46949df95c1156c967495ad2b8b945831fffb064b35bb6979db"
  },
  "164": {
      "name": "165",
      "genre": "Unknown",
      "thumb": "https://i.ibb.co/3Mw3spc/Tom-and-Jerry.jpg",
      "url": "https://nahrajsoubor.cz/0896ebfca3a63c21d9d32183343225f3053ec55c6f2d37a8fcf3c2916585dd0d"
  },
  "165": {
      "name": "166",
      "genre": "Unknown",
      "thumb": "https://i.ibb.co/3Mw3spc/Tom-and-Jerry.jpg",
      "url": "https://nahrajsoubor.cz/1184020edc62c99ea2b5005c600a2729a1f838f36fbc20a87fef449d20e2cadb"
  },
  "166": {
      "name": "167",
      "genre": "Unknown",
      "thumb": "https://i.ibb.co/3Mw3spc/Tom-and-Jerry.jpg",
      "url": "https://nahrajsoubor.cz/152f454276ad35beb75a9603f015ddbd18b40aaf08b0b7718ffa5a357e763712"
  }
}
