{
  "1": {
      "name": "S01E02",
      "genre": "Unknown",
      "thumb": "https://i.ibb.co/RTX238f/Frankie-Drake-Mysteries.jpg",
      "url": "http://nahrajsoubor.cz/1b00dab41abd4225abbf5ed2be58dd3dda755781e3def4e8a5e4b04fcb26825c"
  },
  "2": {
      "name": "S01E03",
      "genre": "Unknown",
      "thumb": "https://i.ibb.co/RTX238f/Frankie-Drake-Mysteries.jpg",
      "url": "http://nahrajsoubor.cz/2d898b3c37542155d4694e04271c3504a63f3ac76f3001e5658355454ec2c05d"
  },
  "3": {
      "name": "S01E04",
      "genre": "Unknown",
      "thumb": "https://i.ibb.co/RTX238f/Frankie-Drake-Mysteries.jpg",
      "url": "http://nahrajsoubor.cz/24324baf4060758de0985465a97051536fb4748d7d187dece03a33214c5fc9e5"
  },
  "4": {
      "name": "S01E05",
      "genre": "Unknown",
      "thumb": "https://i.ibb.co/RTX238f/Frankie-Drake-Mysteries.jpg",
      "url": "http://nahrajsoubor.cz/2f6c31659561385b3172e3796267d63f53ca070621193c638290e7d83ce91c84"
  },
  "5": {
      "name": "S01E06",
      "genre": "Unknown",
      "thumb": "https://i.ibb.co/RTX238f/Frankie-Drake-Mysteries.jpg",
      "url": "http://nahrajsoubor.cz/1a543aa2e520aac1e6d90dedc4371d996fdc04657c64aebe8b2592b4f7218aea"
  },
  "6": {
      "name": "S01E07",
      "genre": "Unknown",
      "thumb": "https://i.ibb.co/RTX238f/Frankie-Drake-Mysteries.jpg",
      "url": "http://nahrajsoubor.cz/c19ef5d877582b69c0cfdc307a77710c1deb68f06658f8ea494f215d9ca8e7c4"
  },
  "7": {
      "name": "S01E08",
      "genre": "Unknown",
      "thumb": "https://i.ibb.co/RTX238f/Frankie-Drake-Mysteries.jpg",
      "url": "http://nahrajsoubor.cz/d0db3aef6fa6208133f7e2a77cfdaee33432d967fa16bc15c0d08cf1a3db5e39"
  },
  "8": {
      "name": "S01E09",
      "genre": "Unknown",
      "thumb": "https://i.ibb.co/RTX238f/Frankie-Drake-Mysteries.jpg",
      "url": "http://nahrajsoubor.cz/268c8898b26ed338a89b0234add48d2bf2c8641f15d4810349bcc74ac9f3cc79"
  },
  "9": {
      "name": "S01E10",
      "genre": "Unknown",
      "thumb": "https://i.ibb.co/RTX238f/Frankie-Drake-Mysteries.jpg",
      "url": "http://nahrajsoubor.cz/84458a32cf9ea00ab462f2c1768100eb3facdaa1b97e81402640a40dbfa50015"
  },
  "10": {
      "name": "S01E11",
      "genre": "Unknown",
      "thumb": "https://i.ibb.co/RTX238f/Frankie-Drake-Mysteries.jpg",
      "url": "http://nahrajsoubor.cz/b8890b9041228496baf1fc97666a3fd7bd7bf84bfff6d8358f8e351ba82f7e29"
  },
  "11": {
      "name": "S02E01",
      "genre": "Unknown",
      "thumb": "https://i.ibb.co/RTX238f/Frankie-Drake-Mysteries.jpg",
      "url": "http://nahrajsoubor.cz/12cfb9fc470ff80b7bd9ba7697b8158e18254de63aeea5db988ccbcc0fbab002"
  },
  "12": {
      "name": "S02E02",
      "genre": "Unknown",
      "thumb": "https://i.ibb.co/RTX238f/Frankie-Drake-Mysteries.jpg",
      "url": "http://nahrajsoubor.cz/139452f89a0f33a44ec15bca66a85df83449cebe0f938004afb0ae6ad7e8dda4"
  },
  "13": {
      "name": "S02E03",
      "genre": "Unknown",
      "thumb": "https://i.ibb.co/RTX238f/Frankie-Drake-Mysteries.jpg",
      "url": "http://nahrajsoubor.cz/937c23115d840c4d6f2da2076b404519d1bd0233cc33b038b8063edbb12f9e7d"
  },
  "14": {
      "name": "S02E04",
      "genre": "Unknown",
      "thumb": "https://i.ibb.co/RTX238f/Frankie-Drake-Mysteries.jpg",
      "url": "http://nahrajsoubor.cz/070119e46efbd89e2aa9d0f7f9b7c9e019bd4cdbd173d29da8154f959b7cc18c"
  },
  "15": {
      "name": "S02E05",
      "genre": "Unknown",
      "thumb": "https://i.ibb.co/RTX238f/Frankie-Drake-Mysteries.jpg",
      "url": "http://nahrajsoubor.cz/9df79dc730bbc9a1adb614add0630e4744124d2b152473d2cbd3ee1aa70775ec"
  },
  "16": {
      "name": "S02E06",
      "genre": "Unknown",
      "thumb": "https://i.ibb.co/RTX238f/Frankie-Drake-Mysteries.jpg",
      "url": "http://nahrajsoubor.cz/d13c7a3772df989bc341a12c10682c4c554a1bda48bc970000274badeb12bfae"
  },
  "17": {
      "name": "S02E07",
      "genre": "Unknown",
      "thumb": "https://i.ibb.co/RTX238f/Frankie-Drake-Mysteries.jpg",
      "url": "http://nahrajsoubor.cz/cc20046cfd2a02559949e4ead06ef75a10a416eec1116fcc576a4e2afac3f8e0"
  },
  "18": {
      "name": "S02E08",
      "genre": "Unknown",
      "thumb": "https://i.ibb.co/RTX238f/Frankie-Drake-Mysteries.jpg",
      "url": "http://nahrajsoubor.cz/6fbc7d3c9f77f49c31ed935bea829b85a8ffa27835a6054dffcd5ac8ed8e74f0"
  },
  "19": {
      "name": "S02E09",
      "genre": "Unknown",
      "thumb": "https://i.ibb.co/RTX238f/Frankie-Drake-Mysteries.jpg",
      "url": "http://nahrajsoubor.cz/0e8452dce71188454441e6366f4ad111cc3a33f87f58b34f1af81a0592895f9e"
  },
  "20": {
      "name": "S02E10",
      "genre": "Unknown",
      "thumb": "https://i.ibb.co/RTX238f/Frankie-Drake-Mysteries.jpg",
      "url": "http://nahrajsoubor.cz/cf533235cf3dd02fdc511a0c20d45f6849d8c266f6070e389ed19a9d4b43b1a3"
  },
  "21": {
      "name": "S03E01",
      "genre": "Unknown",
      "thumb": "https://i.ibb.co/RTX238f/Frankie-Drake-Mysteries.jpg",
      "url": "http://nahrajsoubor.cz/0caf37528c33981e3e1f8a24ce43e59a5a8a94536f02368ace13335754c2bb6d"
  },
  "22": {
      "name": "S03E02",
      "genre": "Unknown",
      "thumb": "https://i.ibb.co/RTX238f/Frankie-Drake-Mysteries.jpg",
      "url": "http://nahrajsoubor.cz/67a5c24e93b462c665d73b52805579755ab50dd5cb05a936f331c496532faad4"
  },
  "23": {
      "name": "S03E03",
      "genre": "Unknown",
      "thumb": "https://i.ibb.co/RTX238f/Frankie-Drake-Mysteries.jpg",
      "url": "http://nahrajsoubor.cz/1873a15b12f388386cbae5bde94890f5c0a1709c9113a2d4dfb8a51ba555d067"
  },
  "24": {
      "name": "S03E04",
      "genre": "Unknown",
      "thumb": "https://i.ibb.co/RTX238f/Frankie-Drake-Mysteries.jpg",
      "url": "http://nahrajsoubor.cz/db32a7a3ed566d8c98cd7ca1584cff070cbfcdd212cbb5c7dbd8e02e3b4bbefc"
  },
  "25": {
      "name": "S03E05",
      "genre": "Unknown",
      "thumb": "https://i.ibb.co/RTX238f/Frankie-Drake-Mysteries.jpg",
      "url": "http://nahrajsoubor.cz/88b1be32c54abf4acb5b3022bd082959eae641b748828e153a2b705f97cd2ac8"
  },
  "26": {
      "name": "S03E06",
      "genre": "Unknown",
      "thumb": "https://i.ibb.co/RTX238f/Frankie-Drake-Mysteries.jpg",
      "url": "http://nahrajsoubor.cz/0118e05f28c31462b79934510ce31fef47d3b68fca21ef12c66cb8330b2a3e59"
  },
  "27": {
      "name": "S03E07",
      "genre": "Unknown",
      "thumb": "https://i.ibb.co/RTX238f/Frankie-Drake-Mysteries.jpg",
      "url": "http://nahrajsoubor.cz/7285eea99022657857603880265d965a9fd194635a9a26982a8181b1d3932145"
  },
  "28": {
      "name": "S03E08",
      "genre": "Unknown",
      "thumb": "https://i.ibb.co/RTX238f/Frankie-Drake-Mysteries.jpg",
      "url": "http://nahrajsoubor.cz/0118e05f28c31462b79934510ce31fef47d3b68fca21ef12c66cb8330b2a3e59"
  },
  "29": {
      "name": "S03E09",
      "genre": "Unknown",
      "thumb": "https://i.ibb.co/RTX238f/Frankie-Drake-Mysteries.jpg",
      "url": "http://nahrajsoubor.cz/3b6c9e1ca3d958111a21865dc1a38949de589c0a3f015a740fdb025bb578e9ae"
  },
  "30": {
      "name": "S03E10",
      "genre": "Unknown",
      "thumb": "https://i.ibb.co/RTX238f/Frankie-Drake-Mysteries.jpg",
      "url": "http://nahrajsoubor.cz/1d8aeaee79515173ed70bc69646748cf4b0229b7d7599eb7a90b28d3809a6863"
  }
}
