{
  "1": {
      "name": "S01E02",
      "genre": "Unknown",
      "thumb": "https://i.ibb.co/ZKYY5qd/The-Bureau-of-Magical-Things.jpg",
      "url": "https://nahrajsoubor.cz/1b14f6aca0db16eb40b9a75bd659e4d60076b69089d5e6de12ead8322bb43193"
  },
  "2": {
      "name": "S01E03",
      "genre": "Unknown",
      "thumb": "https://i.ibb.co/ZKYY5qd/The-Bureau-of-Magical-Things.jpg",
      "url": "https://nahrajsoubor.cz/cf4e931ccf2bdd3d7793220f177eb2d7351351a437e10b11d6fbcbaafc94b261"
  },
  "3": {
      "name": "S01E04",
      "genre": "Unknown",
      "thumb": "https://i.ibb.co/ZKYY5qd/The-Bureau-of-Magical-Things.jpg",
      "url": "https://nahrajsoubor.cz/bd6f54db59056c1fc244b6d31a0f13d859c454358b8df7f42c7febc19ccaea99"
  },
  "4": {
      "name": "S01E05",
      "genre": "Unknown",
      "thumb": "https://i.ibb.co/ZKYY5qd/The-Bureau-of-Magical-Things.jpg",
      "url": "https://nahrajsoubor.cz/fe4160353dce57550febf1c751f806c5219158427b95a342384d9328e8fab23f"
  },
  "5": {
      "name": "S01E06",
      "genre": "Unknown",
      "thumb": "https://i.ibb.co/ZKYY5qd/The-Bureau-of-Magical-Things.jpg",
      "url": "https://nahrajsoubor.cz/bec92087247dda89a54e5efc846fa4f1b62221a84f69c9536e0bf97c736923b6"
  },
  "6": {
      "name": "S01E07",
      "genre": "Unknown",
      "thumb": "https://i.ibb.co/ZKYY5qd/The-Bureau-of-Magical-Things.jpg",
      "url": "https://nahrajsoubor.cz/3e90def7e7b92e5f338d892beca965e626825c8ef65ec9084b4018654fc52bf1"
  },
  "7": {
      "name": "S01E08",
      "genre": "Unknown",
      "thumb": "https://i.ibb.co/ZKYY5qd/The-Bureau-of-Magical-Things.jpg",
      "url": "https://nahrajsoubor.cz/10b7f2620a45597b235d80e18818c54e01d4c3099dd1622ba99f7e49d1620eb2"
  },
  "8": {
      "name": "S01E09",
      "genre": "Unknown",
      "thumb": "https://i.ibb.co/ZKYY5qd/The-Bureau-of-Magical-Things.jpg",
      "url": "https://nahrajsoubor.cz/eeba76ab926dc28a0a343c560310f64448b83cc7e2cacc3d936f23dfdd4ba20e"
  },
  "9": {
      "name": "S01E10",
      "genre": "Unknown",
      "thumb": "https://i.ibb.co/ZKYY5qd/The-Bureau-of-Magical-Things.jpg",
      "url": "https://nahrajsoubor.cz/7f69df47530e686231651bcde59a45917a80e9e7e3cdae37e70a57d809fd98b2"
  },
  "10": {
      "name": "S01E11",
      "genre": "Unknown",
      "thumb": "https://i.ibb.co/ZKYY5qd/The-Bureau-of-Magical-Things.jpg",
      "url": "https://nahrajsoubor.cz/8de1be70248ca0f6e2b6d12df96ec1071cfb75e9e102e3069f220e2e3bce4019"
  },
  "11": {
      "name": "S01E12",
      "genre": "Unknown",
      "thumb": "https://i.ibb.co/ZKYY5qd/The-Bureau-of-Magical-Things.jpg",
      "url": "https://nahrajsoubor.cz/498f3ef8d1b95b2ccabbd62a3abb8ea33c960fbda333b6a6bc78497df2d3cb7e"
  },
  "12": {
      "name": "S01E13",
      "genre": "Unknown",
      "thumb": "https://i.ibb.co/ZKYY5qd/The-Bureau-of-Magical-Things.jpg",
      "url": "https://nahrajsoubor.cz/ce886d9e971b0dfe5896302809842fd35e29e8c8d83b2c3f92dff4e0b803686c"
  },
  "13": {
      "name": "S01E14",
      "genre": "Unknown",
      "thumb": "https://i.ibb.co/ZKYY5qd/The-Bureau-of-Magical-Things.jpg",
      "url": "https://nahrajsoubor.cz/2838764bdfa4bae92a22b23282f380db72e96e2d79123c441e3a323c49fcb639"
  },
  "14": {
      "name": "S01E15",
      "genre": "Unknown",
      "thumb": "https://i.ibb.co/ZKYY5qd/The-Bureau-of-Magical-Things.jpg",
      "url": "https://nahrajsoubor.cz/748de13dbd82b4f134ceb0723d985ac7e4c98cdf4421baf44fbb3dd40522a2db"
  },
  "15": {
      "name": "S01E16",
      "genre": "Unknown",
      "thumb": "https://i.ibb.co/ZKYY5qd/The-Bureau-of-Magical-Things.jpg",
      "url": "https://nahrajsoubor.cz/1484b879cd3cb2a76fe313fc47759ed6d3d3709eefff1eb584f51f823bcaddb7"
  },
  "16": {
      "name": "S01E17",
      "genre": "Unknown",
      "thumb": "https://i.ibb.co/ZKYY5qd/The-Bureau-of-Magical-Things.jpg",
      "url": "https://nahrajsoubor.cz/b91df6c09ace216ca8211ccbdfee0a0c4c86c162cb158251b74b9c6b57b91569"
  },
  "17": {
      "name": "S01E18",
      "genre": "Unknown",
      "thumb": "https://i.ibb.co/ZKYY5qd/The-Bureau-of-Magical-Things.jpg",
      "url": "https://nahrajsoubor.cz/7cec4139055c6bd967903d4665d42fda1f86785b20d8bf317c38c1bd62b74221"
  },
  "18": {
      "name": "S01E19",
      "genre": "Unknown",
      "thumb": "https://i.ibb.co/ZKYY5qd/The-Bureau-of-Magical-Things.jpg",
      "url": "https://nahrajsoubor.cz/a43bd2cdcc9a67d9d084ff79a4e3eca118691341cf1f0df3ed860875c1283b02"
  },
  "19": {
      "name": "S01E20",
      "genre": "Unknown",
      "thumb": "https://i.ibb.co/ZKYY5qd/The-Bureau-of-Magical-Things.jpg",
      "url": "https://nahrajsoubor.cz/e2e4bb7caf8ae35af8b94b5f2317b6e335e782b57ddae0fe4d4c5b4524620683"
  }
}
